Project/PartB/lab11/lab11.sim/sim_1/behav/xsim/simulate.log
Vivado Simulator 2020.1
Time resolution is 1 ps
 Cycle         PC         x7   rd   WE      WData     ALUres
     0 0x00000000 0x00000000  6   1   0x00000200 0x00000200
     1 0x00000000 0x00000000  6   1   0x00000200 0x00000200
     2 0x00000000 0x00000000  6   1   0x00000200 0x00000200
     3 0x00000004 0x00000000  7   1   0x00000005 0x00000005
     4 0x00000004 0x00000000  7   1   0x00000005 0x00000005
     5 0x00000004 0x00000000  7   1   0x00000005 0x00000005
     6 0x00000004 0x00000000  7   1   0x00000005 0x00000005
     7 0x00000004 0x00000000  7   1   0x00000005 0x00000005
     8 0x00000004 0x00000000  7   1   0x00000005 0x00000005
     9 0x00000004 0x00000000  7   1   0x00000005 0x00000005
    10 0x00000004 0x00000000  7   1   0x00000005 0x00000005
    11 0x00000008 0x00000005  0   0   0x00000200 0x00000200
    12 0x00000008 0x00000005  0   0   0x00000200 0x00000200
    13 0x00000008 0x00000005  0   0   0x00000200 0x00000200
    14 0x00000008 0x00000005  0   0   0x00000200 0x00000200
    15 0x00000008 0x00000005  0   0   0x00000200 0x00000200
    16 0x00000008 0x00000005  0   0   0x00000200 0x00000200
    17 0x00000008 0x00000005  0   0   0x00000200 0x00000200
    18 0x00000008 0x00000005  0   0   0x00000200 0x00000200
    19 0x0000000c 0x00000005  2   1   0x000001ff 0x000001ff

=== Init phase (first 10 slow cycles) ===
 Cycle         PC      Instr         x6         x7
     0 0x00000010 0x20400293 0x00000200 0x00000005
     1 0x00000014 0x0002a023 0x00000200 0x00000005
     2 0x00000018 0x20000313 0x00000200 0x00000005
     3 0x0000001c 0x00032383 0x00000200 0x00000005
     4 0x00000020 0xfe038ce3 0x00000200 0x00000005
     5 0x00000024 0x20400293 0x00000200 0x00000005
     6 0x00000028 0x0072a023 0x00000200 0x00000005
     7 0x0000002c 0x00038513 0x00000200 0x00000005
     8 0x00000030 0xff810113 0x00000200 0x00000005
     9 0x00000034 0x00112223 0x00000200 0x00000005

=== Checks after init ===
  PASS  ch addr = 0x200) = 0x00000200
  PASS  coded value = 5) = 0x00000005
  FAIL  stack ptr = 511) : expected 0x000001ff, got 0x000001f7

=== Data memory check ===
  PASS  DataMemory[0x200] = 5
 Cycle         PC    x10(a0)     s0(x8)        x15
     0 0x00000038 0x00000005 0x00000000 0x00000000
     1 0x0000003c 0x00000005 0x00000000 0x00000000
     2 0x00000050 0x00000005 0x00000000 0x00000000
     3 0x00000054 0x00000005 0x00000005 0x00000000
     4 0x00000058 0x00000005 0x00000005 0x00000000
     5 0x0000005c 0x00000005 0x00000005 0x00000000
     6 0x00000060 0x00000005 0x00000005 0x00000000
     7 0x00000064 0x00000005 0x00000005 0x00000000
     8 0x00000068 0x00000005 0x00000005 0x00000000
     9 0x0000006c 0x00000005 0x00000005 0x00000005
    10 0x00000070 0x00000005 0x00000005 0x00000005
    11 0x00000074 0x00000005 0x00000005 0x00000005
    12 0x00000078 0x00000005 0x00000005 0x00000005
    13 0x00000098 0x00000005 0x00000005 0x00000005
    14 0x0000009c 0x00000005 0x00000005 0x00000005
    15 0x000000a0 0x00000005 0x00000005 0x00000005
    16 0x0000009c 0x00000005 0x00000005 0x00000005
    17 0x000000a0 0x00000005 0x00000005 0x00000005
    18 0x0000009c 0x00000005 0x00000005 0x00000005
    19 0x000000a0 0x00000005 0x00000005 0x00000005
    20 0x000000a4 0x00000005 0x00000005 0x00000005
    21 0x0000007c 0x00000005 0x00000005 0x00000005
    22 0x00000080 0x00000005 0x00000005 0x00000005
    23 0x00000084 0x00000005 0x00000005 0x00000005
    24 0x00000088 0x00000005 0x00000004 0x00000005
    25 0x00000054 0x00000005 0x00000004 0x00000005
    26 0x00000058 0x00000005 0x00000004 0x00000005
    27 0x0000005c 0x00000005 0x00000004 0x00000005
    28 0x00000060 0x00000005 0x00000004 0x00000005
    29 0x00000064 0x00000005 0x00000004 0x00000005
    30 0x00000068 0x00000005 0x00000004 0x00000005
    31 0x0000006c 0x00000005 0x00000004 0x00000004
    32 0x00000070 0x00000005 0x00000004 0x00000004
    33 0x00000074 0x00000005 0x00000004 0x00000004
    34 0x00000078 0x00000005 0x00000004 0x00000004
    35 0x00000098 0x00000005 0x00000004 0x00000004
    36 0x0000009c 0x00000005 0x00000004 0x00000004
    37 0x000000a0 0x00000005 0x00000004 0x00000004
    38 0x0000009c 0x00000005 0x00000004 0x00000004
    39 0x000000a0 0x00000005 0x00000004 0x00000004
    40 0x0000009c 0x00000005 0x00000004 0x00000004
    41 0x000000a0 0x00000005 0x00000004 0x00000004
    42 0x000000a4 0x00000005 0x00000004 0x00000004
    43 0x0000007c 0x00000005 0x00000004 0x00000004
    44 0x00000080 0x00000005 0x00000004 0x00000004
    45 0x00000084 0x00000005 0x00000004 0x00000004
    46 0x00000088 0x00000005 0x00000003 0x00000004
    47 0x00000054 0x00000005 0x00000003 0x00000004
    48 0x00000058 0x00000005 0x00000003 0x00000004
    49 0x0000005c 0x00000005 0x00000003 0x00000004
    50 0x00000060 0x00000005 0x00000003 0x00000004
    51 0x00000064 0x00000005 0x00000003 0x00000004
    52 0x00000068 0x00000005 0x00000003 0x00000004
    53 0x0000006c 0x00000005 0x00000003 0x00000003
    54 0x00000070 0x00000005 0x00000003 0x00000003
    55 0x00000074 0x00000005 0x00000003 0x00000003
    56 0x00000078 0x00000005 0x00000003 0x00000003
    57 0x00000098 0x00000005 0x00000003 0x00000003
    58 0x0000009c 0x00000005 0x00000003 0x00000003
    59 0x000000a0 0x00000005 0x00000003 0x00000003
    60 0x0000009c 0x00000005 0x00000003 0x00000003
    61 0x000000a0 0x00000005 0x00000003 0x00000003
    62 0x0000009c 0x00000005 0x00000003 0x00000003
    63 0x000000a0 0x00000005 0x00000003 0x00000003
    64 0x000000a4 0x00000005 0x00000003 0x00000003
    65 0x0000007c 0x00000005 0x00000003 0x00000003
    66 0x00000080 0x00000005 0x00000003 0x00000003
    67 0x00000084 0x00000005 0x00000003 0x00000003
    68 0x00000088 0x00000005 0x00000002 0x00000003
    69 0x00000054 0x00000005 0x00000002 0x00000003
    70 0x00000058 0x00000005 0x00000002 0x00000003
    71 0x0000005c 0x00000005 0x00000002 0x00000003
    72 0x00000060 0x00000005 0x00000002 0x00000003
    73 0x00000064 0x00000005 0x00000002 0x00000003
    74 0x00000068 0x00000005 0x00000002 0x00000003
    75 0x0000006c 0x00000005 0x00000002 0x00000002
    76 0x00000070 0x00000005 0x00000002 0x00000002
    77 0x00000074 0x00000005 0x00000002 0x00000002
    78 0x00000078 0x00000005 0x00000002 0x00000002
    79 0x00000098 0x00000005 0x00000002 0x00000002
    80 0x0000009c 0x00000005 0x00000002 0x00000002
    81 0x000000a0 0x00000005 0x00000002 0x00000002
    82 0x0000009c 0x00000005 0x00000002 0x00000002
    83 0x000000a0 0x00000005 0x00000002 0x00000002
    84 0x0000009c 0x00000005 0x00000002 0x00000002
    85 0x000000a0 0x00000005 0x00000002 0x00000002
    86 0x000000a4 0x00000005 0x00000002 0x00000002
    87 0x0000007c 0x00000005 0x00000002 0x00000002
    88 0x00000080 0x00000005 0x00000002 0x00000002
    89 0x00000084 0x00000005 0x00000002 0x00000002
    90 0x00000088 0x00000005 0x00000001 0x00000002
    91 0x00000054 0x00000005 0x00000001 0x00000002
    92 0x00000058 0x00000005 0x00000001 0x00000002
    93 0x0000005c 0x00000005 0x00000001 0x00000002
    94 0x00000060 0x00000005 0x00000001 0x00000002
    95 0x00000064 0x00000005 0x00000001 0x00000002
    96 0x00000068 0x00000005 0x00000001 0x00000002
    97 0x0000006c 0x00000005 0x00000001 0x00000001
    98 0x00000070 0x00000005 0x00000001 0x00000001
    99 0x00000074 0x00000005 0x00000001 0x00000001
   100 0x00000078 0x00000005 0x00000001 0x00000001
   101 0x00000098 0x00000005 0x00000001 0x00000001
   102 0x0000009c 0x00000005 0x00000001 0x00000001
   103 0x000000a0 0x00000005 0x00000001 0x00000001
   104 0x0000009c 0x00000005 0x00000001 0x00000001
   105 0x000000a0 0x00000005 0x00000001 0x00000001
   106 0x0000009c 0x00000005 0x00000001 0x00000001
   107 0x000000a0 0x00000005 0x00000001 0x00000001
   108 0x000000a4 0x00000005 0x00000001 0x00000001
   109 0x0000007c 0x00000005 0x00000001 0x00000001
   110 0x00000080 0x00000005 0x00000001 0x00000001
   111 0x00000084 0x00000005 0x00000001 0x00000001
   112 0x00000088 0x00000005 0x00000000 0x00000001
   113 0x00000054 0x00000005 0x00000000 0x00000001
   114 0x00000058 0x00000005 0x00000000 0x00000001
   115 0x0000005c 0x00000005 0x00000000 0x00000001
   116 0x00000060 0x00000005 0x00000000 0x00000001
   117 0x00000064 0x00000005 0x00000000 0x00000001
   118 0x00000068 0x00000005 0x00000000 0x00000001
   119 0x0000006c 0x00000005 0x00000000 0x00000000
   120 0x0000008c 0x00000005 0x00000000 0x00000000
   121 0x00000090 0x00000005 0x00000000 0x00000000
   122 0x00000094 0x00000005 0x00000000 0x00000000
   123 0x00000040 0x00000005 0x00000000 0x00000000
   124 0x00000044 0x00000005 0x00000000 0x00000000
   125 0x00000048 0x00000005 0x00000000 0x00000000
   126 0x0000004c 0x00000005 0x00000000 0x00000000
   127 0x00000010 0x00000005 0x00000000 0x00000000
   128 0x00000014 0x00000005 0x00000000 0x00000000
   129 0x00000018 0x00000005 0x00000000 0x00000000
   130 0x0000001c 0x00000005 0x00000000 0x00000000
   131 0x00000020 0x00000005 0x00000000 0x00000000
   132 0x00000024 0x00000005 0x00000000 0x00000000
   133 0x00000028 0x00000005 0x00000000 0x00000000
   134 0x0000002c 0x00000005 0x00000000 0x00000000
   135 0x00000030 0x00000005 0x00000000 0x00000000
   136 0x00000034 0x00000005 0x00000000 0x00000000
   137 0x00000038 0x00000005 0x00000000 0x00000000
   138 0x0000003c 0x00000005 0x00000000 0x00000000
   139 0x00000050 0x00000005 0x00000000 0x00000000
   140 0x00000054 0x00000005 0x00000005 0x00000000
   141 0x00000058 0x00000005 0x00000005 0x00000000
   142 0x0000005c 0x00000005 0x00000005 0x00000000
   143 0x00000060 0x00000005 0x00000005 0x00000000
   144 0x00000064 0x00000005 0x00000005 0x00000000
   145 0x00000068 0x00000005 0x00000005 0x00000000
   146 0x0000006c 0x00000005 0x00000005 0x00000005
   147 0x00000070 0x00000005 0x00000005 0x00000005
   148 0x00000074 0x00000005 0x00000005 0x00000005
   149 0x00000078 0x00000005 0x00000005 0x00000005
   150 0x00000098 0x00000005 0x00000005 0x00000005
   151 0x0000009c 0x00000005 0x00000005 0x00000005
   152 0x000000a0 0x00000005 0x00000005 0x00000005
   153 0x0000009c 0x00000005 0x00000005 0x00000005
   154 0x000000a0 0x00000005 0x00000005 0x00000005
   155 0x0000009c 0x00000005 0x00000005 0x00000005
   156 0x000000a0 0x00000005 0x00000005 0x00000005
   157 0x000000a4 0x00000005 0x00000005 0x00000005
   158 0x0000007c 0x00000005 0x00000005 0x00000005
   159 0x00000080 0x00000005 0x00000005 0x00000005
   160 0x00000084 0x00000005 0x00000005 0x00000005
   161 0x00000088 0x00000005 0x00000004 0x00000005
   162 0x00000054 0x00000005 0x00000004 0x00000005
   163 0x00000058 0x00000005 0x00000004 0x00000005
   164 0x0000005c 0x00000005 0x00000004 0x00000005
   165 0x00000060 0x00000005 0x00000004 0x00000005
   166 0x00000064 0x00000005 0x00000004 0x00000005
   167 0x00000068 0x00000005 0x00000004 0x00000005
   168 0x0000006c 0x00000005 0x00000004 0x00000004
   169 0x00000070 0x00000005 0x00000004 0x00000004
   170 0x00000074 0x00000005 0x00000004 0x00000004
   171 0x00000078 0x00000005 0x00000004 0x00000004
   172 0x00000098 0x00000005 0x00000004 0x00000004
   173 0x0000009c 0x00000005 0x00000004 0x00000004
   174 0x000000a0 0x00000005 0x00000004 0x00000004
   175 0x0000009c 0x00000005 0x00000004 0x00000004
   176 0x000000a0 0x00000005 0x00000004 0x00000004
   177 0x0000009c 0x00000005 0x00000004 0x00000004
   178 0x000000a0 0x00000005 0x00000004 0x00000004
   179 0x000000a4 0x00000005 0x00000004 0x00000004
   180 0x0000007c 0x00000005 0x00000004 0x00000004
   181 0x00000080 0x00000005 0x00000004 0x00000004
   182 0x00000084 0x00000005 0x00000004 0x00000004
   183 0x00000088 0x00000005 0x00000003 0x00000004
   184 0x00000054 0x00000005 0x00000003 0x00000004
   185 0x00000058 0x00000005 0x00000003 0x00000004
   186 0x0000005c 0x00000005 0x00000003 0x00000004
   187 0x00000060 0x00000005 0x00000003 0x00000004
   188 0x00000064 0x00000005 0x00000003 0x00000004
   189 0x00000068 0x00000005 0x00000003 0x00000004
   190 0x0000006c 0x00000005 0x00000003 0x00000003
   191 0x00000070 0x00000005 0x00000003 0x00000003
   192 0x00000074 0x00000005 0x00000003 0x00000003
   193 0x00000078 0x00000005 0x00000003 0x00000003
   194 0x00000098 0x00000005 0x00000003 0x00000003
   195 0x0000009c 0x00000005 0x00000003 0x00000003
   196 0x000000a0 0x00000005 0x00000003 0x00000003
   197 0x0000009c 0x00000005 0x00000003 0x00000003
   198 0x000000a0 0x00000005 0x00000003 0x00000003
   199 0x0000009c 0x00000005 0x00000003 0x00000003
   200 0x000000a0 0x00000005 0x00000003 0x00000003
   201 0x000000a4 0x00000005 0x00000003 0x00000003
   202 0x0000007c 0x00000005 0x00000003 0x00000003
   203 0x00000080 0x00000005 0x00000003 0x00000003
   204 0x00000084 0x00000005 0x00000003 0x00000003
   205 0x00000088 0x00000005 0x00000002 0x00000003
   206 0x00000054 0x00000005 0x00000002 0x00000003
   207 0x00000058 0x00000005 0x00000002 0x00000003
   208 0x0000005c 0x00000005 0x00000002 0x00000003
   209 0x00000060 0x00000005 0x00000002 0x00000003
   210 0x00000064 0x00000005 0x00000002 0x00000003
   211 0x00000068 0x00000005 0x00000002 0x00000003
   212 0x0000006c 0x00000005 0x00000002 0x00000002
   213 0x00000070 0x00000005 0x00000002 0x00000002
   214 0x00000074 0x00000005 0x00000002 0x00000002
   215 0x00000078 0x00000005 0x00000002 0x00000002
   216 0x00000098 0x00000005 0x00000002 0x00000002
   217 0x0000009c 0x00000005 0x00000002 0x00000002
   218 0x000000a0 0x00000005 0x00000002 0x00000002
   219 0x0000009c 0x00000005 0x00000002 0x00000002
   220 0x000000a0 0x00000005 0x00000002 0x00000002
   221 0x0000009c 0x00000005 0x00000002 0x00000002
   222 0x000000a0 0x00000005 0x00000002 0x00000002
   223 0x000000a4 0x00000005 0x00000002 0x00000002
   224 0x0000007c 0x00000005 0x00000002 0x00000002
   225 0x00000080 0x00000005 0x00000002 0x00000002
   226 0x00000084 0x00000005 0x00000002 0x00000002
   227 0x00000088 0x00000005 0x00000001 0x00000002
   228 0x00000054 0x00000005 0x00000001 0x00000002
   229 0x00000058 0x00000005 0x00000001 0x00000002
   230 0x0000005c 0x00000005 0x00000001 0x00000002
   231 0x00000060 0x00000005 0x00000001 0x00000002
   232 0x00000064 0x00000005 0x00000001 0x00000002
   233 0x00000068 0x00000005 0x00000001 0x00000002
   234 0x0000006c 0x00000005 0x00000001 0x00000001
   235 0x00000070 0x00000005 0x00000001 0x00000001
   236 0x00000074 0x00000005 0x00000001 0x00000001
   237 0x00000078 0x00000005 0x00000001 0x00000001
   238 0x00000098 0x00000005 0x00000001 0x00000001
   239 0x0000009c 0x00000005 0x00000001 0x00000001
   240 0x000000a0 0x00000005 0x00000001 0x00000001
   241 0x0000009c 0x00000005 0x00000001 0x00000001
   242 0x000000a0 0x00000005 0x00000001 0x00000001
   243 0x0000009c 0x00000005 0x00000001 0x00000001
   244 0x000000a0 0x00000005 0x00000001 0x00000001
   245 0x000000a4 0x00000005 0x00000001 0x00000001
   246 0x0000007c 0x00000005 0x00000001 0x00000001
   247 0x00000080 0x00000005 0x00000001 0x00000001
   248 0x00000084 0x00000005 0x00000001 0x00000001
   249 0x00000088 0x00000005 0x00000000 0x00000001
   250 0x00000054 0x00000005 0x00000000 0x00000001
   251 0x00000058 0x00000005 0x00000000 0x00000001
   252 0x0000005c 0x00000005 0x00000000 0x00000001
   253 0x00000060 0x00000005 0x00000000 0x00000001
   254 0x00000064 0x00000005 0x00000000 0x00000001
   255 0x00000068 0x00000005 0x00000000 0x00000001
   256 0x0000006c 0x00000005 0x00000000 0x00000000
   257 0x0000008c 0x00000005 0x00000000 0x00000000
   258 0x00000090 0x00000005 0x00000000 0x00000000
   259 0x00000094 0x00000005 0x00000000 0x00000000
   260 0x00000040 0x00000005 0x00000000 0x00000000
   261 0x00000044 0x00000005 0x00000000 0x00000000
   262 0x00000048 0x00000005 0x00000000 0x00000000
   263 0x0000004c 0x00000005 0x00000000 0x00000000
   264 0x00000010 0x00000005 0x00000000 0x00000000
   265 0x00000014 0x00000005 0x00000000 0x00000000
   266 0x00000018 0x00000005 0x00000000 0x00000000
   267 0x0000001c 0x00000005 0x00000000 0x00000000
   268 0x00000020 0x00000005 0x00000000 0x00000000
   269 0x00000024 0x00000005 0x00000000 0x00000000
   270 0x00000028 0x00000005 0x00000000 0x00000000
   271 0x0000002c 0x00000005 0x00000000 0x00000000
   272 0x00000030 0x00000005 0x00000000 0x00000000
   273 0x00000034 0x00000005 0x00000000 0x00000000
   274 0x00000038 0x00000005 0x00000000 0x00000000
   275 0x0000003c 0x00000005 0x00000000 0x00000000
   276 0x00000050 0x00000005 0x00000000 0x00000000
   277 0x00000054 0x00000005 0x00000005 0x00000000
   278 0x00000058 0x00000005 0x00000005 0x00000000
   279 0x0000005c 0x00000005 0x00000005 0x00000000
   280 0x00000060 0x00000005 0x00000005 0x00000000
   281 0x00000064 0x00000005 0x00000005 0x00000000
   282 0x00000068 0x00000005 0x00000005 0x00000000
   283 0x0000006c 0x00000005 0x00000005 0x00000005
   284 0x00000070 0x00000005 0x00000005 0x00000005
   285 0x00000074 0x00000005 0x00000005 0x00000005
   286 0x00000078 0x00000005 0x00000005 0x00000005
   287 0x00000098 0x00000005 0x00000005 0x00000005
   288 0x0000009c 0x00000005 0x00000005 0x00000005
   289 0x000000a0 0x00000005 0x00000005 0x00000005
   290 0x0000009c 0x00000005 0x00000005 0x00000005
   291 0x000000a0 0x00000005 0x00000005 0x00000005
   292 0x0000009c 0x00000005 0x00000005 0x00000005
   293 0x000000a0 0x00000005 0x00000005 0x00000005
   294 0x000000a4 0x00000005 0x00000005 0x00000005
   295 0x0000007c 0x00000005 0x00000005 0x00000005
   296 0x00000080 0x00000005 0x00000005 0x00000005
   297 0x00000084 0x00000005 0x00000005 0x00000005
   298 0x00000088 0x00000005 0x00000004 0x00000005
   299 0x00000054 0x00000005 0x00000004 0x00000005
   300 0x00000058 0x00000005 0x00000004 0x00000005
   301 0x0000005c 0x00000005 0x00000004 0x00000005
   302 0x00000060 0x00000005 0x00000004 0x00000005
   303 0x00000064 0x00000005 0x00000004 0x00000005
   304 0x00000068 0x00000005 0x00000004 0x00000005
   305 0x0000006c 0x00000005 0x00000004 0x00000004
   306 0x00000070 0x00000005 0x00000004 0x00000004
   307 0x00000074 0x00000005 0x00000004 0x00000004
   308 0x00000078 0x00000005 0x00000004 0x00000004
   309 0x00000098 0x00000005 0x00000004 0x00000004
   310 0x0000009c 0x00000005 0x00000004 0x00000004
   311 0x000000a0 0x00000005 0x00000004 0x00000004
   312 0x0000009c 0x00000005 0x00000004 0x00000004
   313 0x000000a0 0x00000005 0x00000004 0x00000004
   314 0x0000009c 0x00000005 0x00000004 0x00000004
   315 0x000000a0 0x00000005 0x00000004 0x00000004
   316 0x000000a4 0x00000005 0x00000004 0x00000004
   317 0x0000007c 0x00000005 0x00000004 0x00000004
   318 0x00000080 0x00000005 0x00000004 0x00000004
   319 0x00000084 0x00000005 0x00000004 0x00000004
   320 0x00000088 0x00000005 0x00000003 0x00000004
   321 0x00000054 0x00000005 0x00000003 0x00000004
   322 0x00000058 0x00000005 0x00000003 0x00000004
   323 0x0000005c 0x00000005 0x00000003 0x00000004
   324 0x00000060 0x00000005 0x00000003 0x00000004
   325 0x00000064 0x00000005 0x00000003 0x00000004
   326 0x00000068 0x00000005 0x00000003 0x00000004
   327 0x0000006c 0x00000005 0x00000003 0x00000003
   328 0x00000070 0x00000005 0x00000003 0x00000003
   329 0x00000074 0x00000005 0x00000003 0x00000003
   330 0x00000078 0x00000005 0x00000003 0x00000003
   331 0x00000098 0x00000005 0x00000003 0x00000003
   332 0x0000009c 0x00000005 0x00000003 0x00000003
   333 0x000000a0 0x00000005 0x00000003 0x00000003
   334 0x0000009c 0x00000005 0x00000003 0x00000003
   335 0x000000a0 0x00000005 0x00000003 0x00000003
   336 0x0000009c 0x00000005 0x00000003 0x00000003
   337 0x000000a0 0x00000005 0x00000003 0x00000003
   338 0x000000a4 0x00000005 0x00000003 0x00000003
   339 0x0000007c 0x00000005 0x00000003 0x00000003
   340 0x00000080 0x00000005 0x00000003 0x00000003
   341 0x00000084 0x00000005 0x00000003 0x00000003
   342 0x00000088 0x00000005 0x00000002 0x00000003
   343 0x00000054 0x00000005 0x00000002 0x00000003
   344 0x00000058 0x00000005 0x00000002 0x00000003
   345 0x0000005c 0x00000005 0x00000002 0x00000003
   346 0x00000060 0x00000005 0x00000002 0x00000003
   347 0x00000064 0x00000005 0x00000002 0x00000003
   348 0x00000068 0x00000005 0x00000002 0x00000003
   349 0x0000006c 0x00000005 0x00000002 0x00000002
   350 0x00000070 0x00000005 0x00000002 0x00000002
   351 0x00000074 0x00000005 0x00000002 0x00000002
   352 0x00000078 0x00000005 0x00000002 0x00000002
   353 0x00000098 0x00000005 0x00000002 0x00000002
   354 0x0000009c 0x00000005 0x00000002 0x00000002
   355 0x000000a0 0x00000005 0x00000002 0x00000002
   356 0x0000009c 0x00000005 0x00000002 0x00000002
   357 0x000000a0 0x00000005 0x00000002 0x00000002
   358 0x0000009c 0x00000005 0x00000002 0x00000002
   359 0x000000a0 0x00000005 0x00000002 0x00000002
   360 0x000000a4 0x00000005 0x00000002 0x00000002
   361 0x0000007c 0x00000005 0x00000002 0x00000002
   362 0x00000080 0x00000005 0x00000002 0x00000002
   363 0x00000084 0x00000005 0x00000002 0x00000002
   364 0x00000088 0x00000005 0x00000001 0x00000002
   365 0x00000054 0x00000005 0x00000001 0x00000002
   366 0x00000058 0x00000005 0x00000001 0x00000002
   367 0x0000005c 0x00000005 0x00000001 0x00000002
   368 0x00000060 0x00000005 0x00000001 0x00000002
   369 0x00000064 0x00000005 0x00000001 0x00000002
   370 0x00000068 0x00000005 0x00000001 0x00000002
   371 0x0000006c 0x00000005 0x00000001 0x00000001
   372 0x00000070 0x00000005 0x00000001 0x00000001
   373 0x00000074 0x00000005 0x00000001 0x00000001
   374 0x00000078 0x00000005 0x00000001 0x00000001
   375 0x00000098 0x00000005 0x00000001 0x00000001
   376 0x0000009c 0x00000005 0x00000001 0x00000001
   377 0x000000a0 0x00000005 0x00000001 0x00000001
   378 0x0000009c 0x00000005 0x00000001 0x00000001
   379 0x000000a0 0x00000005 0x00000001 0x00000001
   380 0x0000009c 0x00000005 0x00000001 0x00000001
   381 0x000000a0 0x00000005 0x00000001 0x00000001
   382 0x000000a4 0x00000005 0x00000001 0x00000001
   383 0x0000007c 0x00000005 0x00000001 0x00000001
   384 0x00000080 0x00000005 0x00000001 0x00000001
   385 0x00000084 0x00000005 0x00000001 0x00000001
   386 0x00000088 0x00000005 0x00000000 0x00000001
   387 0x00000054 0x00000005 0x00000000 0x00000001
   388 0x00000058 0x00000005 0x00000000 0x00000001
   389 0x0000005c 0x00000005 0x00000000 0x00000001
   390 0x00000060 0x00000005 0x00000000 0x00000001
   391 0x00000064 0x00000005 0x00000000 0x00000001
   392 0x00000068 0x00000005 0x00000000 0x00000001
   393 0x0000006c 0x00000005 0x00000000 0x00000000
   394 0x0000008c 0x00000005 0x00000000 0x00000000
   395 0x00000090 0x00000005 0x00000000 0x00000000
   396 0x00000094 0x00000005 0x00000000 0x00000000
   397 0x00000040 0x00000005 0x00000000 0x00000000
   398 0x00000044 0x00000005 0x00000000 0x00000000
   399 0x00000048 0x00000005 0x00000000 0x00000000
   400 0x0000004c 0x00000005 0x00000000 0x00000000
   401 0x00000010 0x00000005 0x00000000 0x00000000
   402 0x00000014 0x00000005 0x00000000 0x00000000
   403 0x00000018 0x00000005 0x00000000 0x00000000
   404 0x0000001c 0x00000005 0x00000000 0x00000000
   405 0x00000020 0x00000005 0x00000000 0x00000000
   406 0x00000024 0x00000005 0x00000000 0x00000000
   407 0x00000028 0x00000005 0x00000000 0x00000000
   408 0x0000002c 0x00000005 0x00000000 0x00000000
   409 0x00000030 0x00000005 0x00000000 0x00000000
   410 0x00000034 0x00000005 0x00000000 0x00000000
   411 0x00000038 0x00000005 0x00000000 0x00000000
   412 0x0000003c 0x00000005 0x00000000 0x00000000
   413 0x00000050 0x00000005 0x00000000 0x00000000
   414 0x00000054 0x00000005 0x00000005 0x00000000
   415 0x00000058 0x00000005 0x00000005 0x00000000
   416 0x0000005c 0x00000005 0x00000005 0x00000000
   417 0x00000060 0x00000005 0x00000005 0x00000000
   418 0x00000064 0x00000005 0x00000005 0x00000000
   419 0x00000068 0x00000005 0x00000005 0x00000000
   420 0x0000006c 0x00000005 0x00000005 0x00000005
   421 0x00000070 0x00000005 0x00000005 0x00000005
   422 0x00000074 0x00000005 0x00000005 0x00000005
   423 0x00000078 0x00000005 0x00000005 0x00000005
   424 0x00000098 0x00000005 0x00000005 0x00000005
   425 0x0000009c 0x00000005 0x00000005 0x00000005
   426 0x000000a0 0x00000005 0x00000005 0x00000005
   427 0x0000009c 0x00000005 0x00000005 0x00000005
   428 0x000000a0 0x00000005 0x00000005 0x00000005
   429 0x0000009c 0x00000005 0x00000005 0x00000005
   430 0x000000a0 0x00000005 0x00000005 0x00000005
   431 0x000000a4 0x00000005 0x00000005 0x00000005
   432 0x0000007c 0x00000005 0x00000005 0x00000005
   433 0x00000080 0x00000005 0x00000005 0x00000005
   434 0x00000084 0x00000005 0x00000005 0x00000005
   435 0x00000088 0x00000005 0x00000004 0x00000005
   436 0x00000054 0x00000005 0x00000004 0x00000005
   437 0x00000058 0x00000005 0x00000004 0x00000005
   438 0x0000005c 0x00000005 0x00000004 0x00000005
