Project/PartA/lab11_secondzip/lab11/lab11.sim/sim_1/behav/xsim/tb_TopLevel.vcd
$date
   Fri Apr 10 01:53:23 2026
$end
$version
  2020.1
$end
$timescale
  1ps
$end
$scope module tb_TopLevel $end
$var reg 1 ! clk $end
$var reg 1 " reset $end
$var wire 7 # seg [6:0] $end
$var wire 4 $ an [3:0] $end
$var wire 32 % pc [31:0] $end
$var wire 32 & x2 [31:0] $end
$var wire 32 ' x6 [31:0] $end
$var wire 32 ( x7 [31:0] $end
$var wire 32 ) x10 [31:0] $end
$var wire 32 * s0 [31:0] $end
$var wire 32 + x15 [31:0] $end
$var wire 32 , instr [31:0] $end
$var integer 32 - i $end
$scope module uDUT $end
$var wire 1 . clk $end
$var wire 1 / reset $end
$var wire 7 # seg [6:0] $end
$var wire 4 $ an [3:0] $end
$var wire 1 0 slow_clk $end
$var wire 32 1 pc [31:0] $end
$var wire 32 2 pc_plus4 [31:0] $end
$var wire 32 3 pc_next [31:0] $end
$var wire 32 4 branch_target [31:0] $end
$var wire 32 5 pc_jump_target [31:0] $end
$var wire 32 6 instruction [31:0] $end
$var wire 7 7 opcode [6:0] $end
$var wire 5 8 rd_addr [4:0] $end
$var wire 3 9 funct3 [2:0] $end
$var wire 5 : rs1_addr [4:0] $end
$var wire 5 ; rs2_addr [4:0] $end
$var wire 7 < funct7 [6:0] $end
$var wire 1 = RegWrite $end
$var wire 1 > ALUSrc $end
$var wire 1 ? MemRead $end
$var wire 1 @ MemWrite $end
$var wire 1 A MemtoReg $end
$var wire 1 B Branch $end
$var wire 2 C ALUOp [1:0] $end
$var wire 4 D ALUControl [3:0] $end
$var wire 32 E ReadData1 [31:0] $end
$var wire 32 F ReadData2 [31:0] $end
$var wire 32 G imm [31:0] $end
$var wire 32 H alu_in_a [31:0] $end
$var wire 32 I alu_in_b [31:0] $end
$var wire 32 J alu_result [31:0] $end
$var wire 1 K Zero $end
$var wire 32 L mem_read_data [31:0] $end
$var wire 32 M wb_from_mem_mux [31:0] $end
$var wire 32 N wb_final [31:0] $end
$var wire 1 O PCSrc $end
$var wire 1 P is_jal $end
$var wire 1 Q is_jalr $end
$var wire 1 R branch_taken $end
$var reg 32 S x10_monitor [31:0] $end
$var parameter 32 T DIV [31:0] $end
$scope module uClkDiv $end
$var wire 1 . clk_in $end
$var wire 1 / reset $end
$var reg 1 U clk_out $end
$var reg 2 V counter [1:0] $end
$var parameter 32 W DIV [31:0] $end
$upscope $end
$scope module uPC $end
$var wire 1 0 clk $end
$var wire 1 / reset $end
$var wire 32 3 pc_next [31:0] $end
$var reg 32 X pc [31:0] $end
$upscope $end
$scope module uPCAdd $end
$var wire 32 1 pc [31:0] $end
$var wire 32 2 pc_plus4 [31:0] $end
$upscope $end
$scope module uIMem $end
$var wire 32 1 instAddress [31:0] $end
$var reg 32 Y instruction [31:0] $end
$upscope $end
$scope module uCtrl $end
$var wire 7 7 opcode [6:0] $end
$var reg 1 Z RegWrite $end
$var reg 1 [ ALUSrc $end
$var reg 1 \ MemRead $end
$var reg 1 ] MemWrite $end
$var reg 1 ^ MemtoReg $end
$var reg 1 _ Branch $end
$var reg 2 ` ALUOp [1:0] $end
$var parameter 7 a R_TYPE [6:0] $end
$var parameter 7 b I_ALU [6:0] $end
$var parameter 7 c LOAD [6:0] $end
$var parameter 7 d STORE [6:0] $end
$var parameter 7 e BRANCH [6:0] $end
$var parameter 7 f JAL [6:0] $end
$var parameter 7 g JALR [6:0] $end
$var parameter 7 h LUI [6:0] $end
$var parameter 7 i AUIPC [6:0] $end
$upscope $end
$scope module uRF $end
$var wire 1 0 clk $end
$var wire 1 / rst $end
$var wire 1 = WriteEnable $end
$var wire 5 : rs1 [4:0] $end
$var wire 5 ; rs2 [4:0] $end
$var wire 5 8 rd [4:0] $end
$var wire 32 N WriteData [31:0] $end
$var wire 32 E ReadData1 [31:0] $end
$var wire 32 F ReadData2 [31:0] $end
$var integer 32 j i $end
$upscope $end
$scope module uImmGen $end
$var wire 32 6 inst [31:0] $end
$var reg 32 k imm_out [31:0] $end
$var wire 7 l opcode [6:0] $end
$upscope $end
$scope module uALUSrcMux $end
$var wire 32 F in0 [31:0] $end
$var wire 32 G in1 [31:0] $end
$var wire 1 > sel $end
$var wire 32 I out [31:0] $end
$var parameter 32 m WIDTH [31:0] $end
$upscope $end
$scope module uALUCtrl $end
$var wire 2 C ALUOp [1:0] $end
$var wire 3 9 funct3 [2:0] $end
$var wire 7 < funct7 [6:0] $end
$var reg 4 n ALUControl [3:0] $end
$var parameter 4 o ALU_AND [3:0] $end
$var parameter 4 p ALU_OR [3:0] $end
$var parameter 4 q ALU_ADD [3:0] $end
$var parameter 4 r ALU_XOR [3:0] $end
$var parameter 4 s ALU_SUB [3:0] $end
$var parameter 4 t ALU_SLL [3:0] $end
$var parameter 4 u ALU_SRL [3:0] $end
$var parameter 4 v ALU_NOP [3:0] $end
$upscope $end
$scope module uALU $end
$var wire 32 H A [31:0] $end
$var wire 32 I B [31:0] $end
$var wire 4 D ALUControl [3:0] $end
$var reg 32 w ALUResult [31:0] $end
$var wire 1 K Zero $end
$upscope $end
$scope module uDMem $end
$var wire 1 0 clk $end
$var wire 1 @ MemWrite $end
$var wire 1 ? MemRead $end
$var wire 3 9 funct3 [2:0] $end
$var wire 32 J address [31:0] $end
$var wire 32 F WriteData [31:0] $end
$var reg 32 x ReadData [31:0] $end
$var integer 32 y idx $end
$var wire 8 z word_addr [7:0] $end
$upscope $end
$scope module uWBMux $end
$var wire 32 J in0 [31:0] $end
$var wire 32 L in1 [31:0] $end
$var wire 1 A sel $end
$var wire 32 M out [31:0] $end
$var parameter 32 { WIDTH [31:0] $end
$upscope $end
$scope module uJALMux $end
$var wire 32 M in0 [31:0] $end
$var wire 32 2 in1 [31:0] $end
$var wire 1 | sel $end
$var wire 32 N out [31:0] $end
$var parameter 32 } WIDTH [31:0] $end
$upscope $end
$scope module uBranchAdd $end
$var wire 32 1 pc [31:0] $end
$var wire 32 G imm [31:0] $end
$var wire 32 4 branch_target [31:0] $end
$upscope $end
$scope module uPCMux $end
$var wire 32 2 in0 [31:0] $end
$var wire 32 5 in1 [31:0] $end
$var wire 1 O sel $end
$var wire 32 3 out [31:0] $end
$var parameter 32 ~ WIDTH [31:0] $end
$upscope $end
$scope module sevenseg $end
$var wire 1 0 clk $end
$var wire 1 / reset $end
$var wire 8 !! value [7:0] $end
$var reg 7 "! seg [6:0] $end
$var reg 4 #! an [3:0] $end
$var reg 4 $! ones [3:0] $end
$var reg 4 %! tens [3:0] $end
$var reg 17 &! refresh_counter [16:0] $end
$var reg 2 '! digit_select [1:0] $end
$var reg 4 (! current_digit [3:0] $end
$upscope $end
$upscope $end
$scope task wait_slow_cycle $end
$upscope $end
$scope task check32 $end
$var reg 32 )! actual [31:0] $end
$var reg 32 *! expected [31:0] $end
$var reg 128 +! label [127:0] $end
$upscope $end
$upscope $end
$enddefinitions $end
#0
$dumpvars
0!
bx !!
1"
bx "!
bx #
bx #!
bx $
bx $!
b0 %
bx %!
b0 &
bx &!
b0 '
bx '!
b0 (
bx (!
b0 )
bx )!
b0 *
bx *!
b0 +
bx +!
b100000000000000000001100010011 ,
bx -
0.
1/
00
b0 1
b100 2
b100 3
b1000000000 4
b1000000000 5
b100000000000000000001100010011 6
b10011 7
b110 8
b0 9
b0 :
b0 ;
b10000 <
1=
1>
0?
0@
0A
0B
b11 C
b10 D
b0 E
b0 F
b1000000000 G
b0 H
b1000000000 I
b1000000000 J
0K
b0 L
b1000000000 M
b1000000000 N
0O
0P
0Q
0R
bx S
b100 T
0U
b0 V
b100 W
b0 X
b100000000000000000001100010011 Y
1Z
1[
0\
0]
0^
0_
b11 `
b110011 a
b10011 b
b11 c
b100011 d
b1100011 e
b1101111 f
b1100111 g
b110111 h
b10111 i
b100000 j
b1000000000 k
b10011 l
b100000 m
b10 n
b0 o
b1 p
b10 q
b11 r
b110 s
b100 t
b101 u
b1111 v
b1000000000 w
b0 x
b100000000 y
b10000000 z
b100000 {
0|
b100000 }
b100000 ~
$end
#5000
1!
1.
0U
#10000
0!
0.
#15000
1!
1.
0U
#20000
0!
0.
#25000
1!
1.
0U
#30000
0!
0.
#35000
1!
1.
0U
#40000
0!
0.
#45000
1!
1.
0U
#50000
0!
0.
#55000
1!
1.
0U
#60000
0!
0.
#65000
1!
1.
0U
#70000
0!
0.
#75000
1!
1.
0U
#80000
0!
0.
#85000
1!
1.
0U
#90000
0!
0.
#95000
1!
1.
0U
#100000
0!
0.
#105000
1!
1.
0U
#110000
0!
0.
#115000
1!
1.
0U
#120000
0!
0.
#125000
1!
1.
0U
#130000
0!
0.
#135000
1!
1.
0U
#140000
0!
0.
#145000
1!
1.
0U
#150000
0!
0.
#155000
1!
1.
0U
#160000
0!
0.
#165000
1!
1.
0U
#170000
0!
0.
#175000
1!
1.
0U
#180000
0!
0.
#185000
1!
1.
0U
#190000
0!
0.
#195000
1!
0"
b0 -
1.
0/
b1 V
#200000
0!
0.
#205000
1!
b1 -
1.
b10 V
#210000
0!
0.
#215000
1!
b10 -
1.
b11 V
#220000
0!
0.
#225000
1!
b100 %
b1000000000 '
b10100000000001110010011 ,
b11 -
1.
10
b100 1
b1000 2
b1000 3
b1001 4
b1001 5
b10100000000001110010011 6
b111 8
b101 ;
b0 <
b10 D
b0 E
b0 F
b101 G
b0 H
b101 I
b101 J
0K
b101 M
b101 N
1U
b0 V
b100 X
b10100000000001110010011 Y
b101 k
b10 n
b101 w
b0 x
b1 z
#230000
0!
0.
#235000
1!
b100 -
1.
b1 V
#240000
0!
0.
#245000
1!
b101 -
1.
b10 V
#250000
0!
0.
#255000
1!
b110 -
1.
b11 V
#260000
0!
0.
#265000
1!
b111 -
1.
00
0U
b0 V
#270000
0!
0.
#275000
1!
b1000 -
1.
b1 V
#280000
0!
0.
#285000
1!
b1001 -
1.
b10 V
#290000
0!
0.
#295000
1!
b1010 -
1.
b11 V
#300000
0!
0.
#305000
1!
b1000 %
b101 (
b11100110010000000100011 ,
b1011 -
1.
10
b1000 1
b1100 2
b1100 3
b1000 4
b1000 5
b11100110010000000100011 6
b100011 7
b0 8
b10 9
b110 :
b111 ;
0=
1>
1@
b0 C
b10 D
b1000000000 E
b101 F
b0 G
b1000000000 H
b0 I
b1000000000 J
0K
b1000000000 M
b1000000000 N
0P
0Q
0R
1U
b0 V
b1000 X
b11100110010000000100011 Y
0Z
1[
0\
1]
0^
0_
b0 `
b0 k
b100011 l
b10 n
b1000000000 w
b0 x
b10000000 z
#310000
0!
0.
#315000
1!
b1100 -
1.
b1 V
#320000
0!
0.
#325000
1!
b1101 -
1.
b10 V
#330000
0!
0.
#335000
1!
b1110 -
1.
b11 V
#340000
0!
0.
#345000
1!
b1111 -
1.
00
0U
b0 V
#350000
0!
0.
#355000
1!
b10000 -
1.
b1 V
#360000
0!
0.
#365000
1!
b10001 -
1.
b10 V
#370000
0!
0.
#375000
1!
b10010 -
1.
b11 V
#380000
0!
0.
#385000
1!
b1100 %
b11111111100000000000100010011 ,
b10011 -
1.
10
b1100 1
b10000 2
b10000 3
b1000001011 4
b1000001011 5
b11111111100000000000100010011 6
b10011 7
b10 8
b0 9
b0 :
b11111 ;
b1111 <
1=
1>
0@
b11 C
b10 D
b0 E
b0 F
b111111111 G
b0 H
b111111111 I
b111111111 J
0K
b111111111 M
b111111111 N
0P
0Q
0R
1U
b0 V
b1100 X
b11111111100000000000100010011 Y
1Z
1[
0\
0]
0^
0_
b11 `
b111111111 k
b10011 l
b10 n
b111111111 w
b0 x
b1111111 z
#390000
0!
0.
#395000
1!
b0 -
1.
b1 V
#400000
0!
0.
#405000
1!
1.
b10 V
#410000
0!
0.
#415000
1!
1.
b11 V
#420000
0!
0.
#425000
1!
1.
00
0U
b0 V
#430000
0!
0.
#435000
1!
1.
b1 V
#440000
0!
0.
#445000
1!
1.
b10 V
#450000
0!
0.
#455000
1!
1.
b11 V
#460000
0!
0.
#465000
1!
b10000 %
b111111111 &
b100000010000000000001010010011 ,
1.
10
b10000 1
b10100 2
b10100 3
b1000010100 4
b1000010100 5
b100000010000000000001010010011 6
b101 8
b100 ;
b10000 <
b10 D
b0 E
b0 F
b1000000100 G
b0 H
b1000000100 I
b1000000100 J
0K
b1000000100 M
b1000000100 N
1U
b0 V
b10000 X
b100000010000000000001010010011 Y
b1000000100 k
b10 n
b1000000100 w
b0 x
b10000001 z
#470000
0!
0.
#475000
1!
b1 -
1.
b1 V
#480000
0!
0.
#485000
1!
1.
b10 V
#490000
0!
0.
#495000
1!
1.
b11 V
#500000
0!
0.
#505000
1!
1.
00
0U
b0 V
#510000
0!
0.
#515000
1!
1.
b1 V
#520000
0!
0.
#525000
1!
1.
b10 V
#530000
0!
0.
#535000
1!
1.
b11 V
#540000
0!
0.
#545000
1!
b10100 %
b101010000000100011 ,
1.
10
b10100 1
b11000 2
b11000 3
b10100 4
b10100 5
b101010000000100011 6
b100011 7
b0 8
b10 9
b101 :
b0 ;
b0 <
0=
1>
1@
b0 C
b10 D
b1000000100 E
b0 F
b0 G
b1000000100 H
b0 I
b1000000100 J
0K
b1000000100 M
b1000000100 N
0P
0Q
0R
1U
b0 V
b10100 X
b101010000000100011 Y
0Z
1[
0\
1]
0^
0_
b0 `
b0 k
b100011 l
b10 n
b1000000100 w
b0 x
b10000001 z
#550000
0!
0.
#555000
1!
b10 -
1.
b1 V
#560000
0!
0.
#565000
1!
1.
b10 V
#570000
0!
0.
#575000
1!
1.
b11 V
#580000
0!
0.
#585000
1!
1.
00
0U
b0 V
#590000
0!
0.
#595000
1!
1.
b1 V
#600000
0!
0.
#605000
1!
1.
b10 V
#610000
0!
0.
#615000
1!
1.
b11 V
#620000
0!
0.
#625000
1!
b11000 %
b100000000000000000001100010011 ,
1.
10
b11000 1
b11100 2
b11100 3
b1000011000 4
b1000011000 5
b100000000000000000001100010011 6
b10011 7
b110 8
b0 9
b0 :
b10000 <
1=
1>
0@
b11 C
b10 D
b0 E
b1000000000 G
b0 H
b1000000000 I
b1000000000 J
0K
b1000000000 M
b1000000000 N
0P
0Q
0R
1U
b0 V
b11000 X
b100000000000000000001100010011 Y
1Z
1[
0\
0]
0^
0_
b11 `
b1000000000 k
b10011 l
b10 n
b1000000000 w
b0 x
b10000000 z
#630000
0!
0.
#635000
1!
b11 -
1.
b1 V
#640000
0!
0.
#645000
1!
1.
b10 V
#650000
0!
0.
#655000
1!
1.
b11 V
#660000
0!
0.
#665000
1!
1.
00
0U
b0 V
#670000
0!
0.
#675000
1!
1.
b1 V
#680000
0!
0.
#685000
1!
1.
b10 V
#690000
0!
0.
#695000
1!
1.
b11 V
#700000
0!
0.
#705000
1!
b11100 %
b110010001110000011 ,
1.
10
b11100 1
b100000 2
b100000 3
b11100 4
b11100 5
b110010001110000011 6
b11 7
b111 8
b10 9
b110 :
b0 <
1>
1?
1A
b0 C
b10 D
b1000000000 E
b0 G
b1000000000 H
b0 I
b1000000000 J
0K
b101 L
b101 M
b101 N
0P
0Q
0R
1U
b0 V
b11100 X
b110010001110000011 Y
1Z
1[
1\
0]
1^
0_
b0 `
b0 k
b11 l
b10 n
b1000000000 w
b101 x
b10000000 z
#710000
0!
0.
#715000
1!
b100 -
1.
b1 V
#720000
0!
0.
#725000
1!
1.
b10 V
#730000
0!
0.
#735000
1!
1.
b11 V
#740000
0!
0.
#745000
1!
1.
00
0U
b0 V
#750000
0!
0.
#755000
1!
1.
b1 V
#760000
0!
0.
#765000
1!
1.
b10 V
#770000
0!
0.
#775000
1!
1.
b11 V
#780000
0!
0.
#785000
1!
b100000 %
b11111110000000111000110011100011 ,
1.
10
b100000 1
b100100 2
b100100 3
b11000 4
b11000 5
b11111110000000111000110011100011 6
b1100011 7
b11001 8
b0 9
b111 :
b1111111 <
0=
0>
0?
0A
1B
b1 C
b110 D
b101 E
b11111111111111111111111111111000 G
b101 H
b0 I
b101 J
0K
b0 L
b101 M
0P
0Q
0R
1U
b0 V
b100000 X
b11111110000000111000110011100011 Y
0Z
0[
0\
0]
0^
1_
b1 `
b11111111111111111111111111111000 k
b1100011 l
b110 n
b101 w
b0 x
b1 z
#790000
0!
0.
#795000
1!
b101 -
1.
b1 V
#800000
0!
0.
#805000
1!
1.
b10 V
#810000
0!
0.
#815000
1!
1.
b11 V
#820000
0!
0.
#825000
1!
1.
00
0U
b0 V
#830000
0!
0.
#835000
1!
1.
b1 V
#840000
0!
0.
#845000
1!
1.
b10 V
#850000
0!
0.
#855000
1!
1.
b11 V
#860000
0!
0.
#865000
1!
b100100 %
b100000010000000000001010010011 ,
1.
10
b100100 1
b101000 2
b101000 3
b1000101000 4
b1000101000 5
b100000010000000000001010010011 6
b10011 7
b101 8
b0 :
b100 ;
b10000 <
1=
1>
0B
b11 C
b10 D
b0 E
b0 F
b1000000100 G
b0 H
b1000000100 I
b1000000100 J
0K
b1000000100 M
b1000000100 N
0O
0P
0Q
0R
1U
b0 V
b100100 X
b100000010000000000001010010011 Y
1Z
1[
0\
0]
0^
0_
b11 `
b1000000100 k
b10011 l
b10 n
b1000000100 w
b0 x
b10000001 z
#870000
0!
0.
#875000
1!
b110 -
1.
b1 V
#880000
0!
0.
#885000
1!
1.
b10 V
#890000
0!
0.
#895000
1!
1.
b11 V
#900000
0!
0.
#905000
1!
1.
00
0U
b0 V
#910000
0!
0.
#915000
1!
1.
b1 V
#920000
0!
0.
#925000
1!
1.
b10 V
#930000
0!
0.
#935000
1!
1.
b11 V
#940000
0!
0.
#945000
1!
b101000 %
b11100101010000000100011 ,
1.
10
b101000 1
b101100 2
b101100 3
b101000 4
b101000 5
b11100101010000000100011 6
b100011 7
b0 8
b10 9
b101 :
b111 ;
b0 <
0=
1>
1@
b0 C
b10 D
b1000000100 E
b101 F
b0 G
b1000000100 H
b0 I
b1000000100 J
0K
b1000000100 M
b1000000100 N
0P
0Q
0R
1U
b0 V
b101000 X
b11100101010000000100011 Y
0Z
1[
0\
1]
0^
0_
b0 `
b0 k
b100011 l
b10 n
b1000000100 w
b0 x
b10000001 z
#950000
0!
0.
#955000
1!
b111 -
1.
b1 V
#960000
0!
0.
#965000
1!
1.
b10 V
#970000
0!
0.
#975000
1!
1.
b11 V
#980000
0!
0.
#985000
1!
1.
00
0U
b0 V
#990000
0!
0.
#995000
1!
1.
b1 V
#1000000
0!
0.
#1005000
1!
1.
b10 V
#1010000
0!
0.
#1015000
1!
1.
b11 V
#1020000
0!
0.
#1025000
1!
b101100 %
b111000010100010011 ,
1.
10
b101100 1
b110000 2
b110000 3
b101100 4
b101100 5
b111000010100010011 6
b10011 7
b1010 8
b0 9
b111 :
b0 ;
1=
1>
0@
b11 C
b10 D
b101 E
b0 F
b101 H
b0 I
b101 J
0K
b101 M
b101 N
0P
0Q
0R
1U
b0 V
b101100 X
b111000010100010011 Y
1Z
1[
0\
0]
0^
0_
b11 `
b0 k
b10011 l
b10 n
b101 w
b0 x
b1 z
#1030000
0!
0.
#1035000
1!
b1000 -
1.
b1 V
#1040000
0!
0.
#1045000
1!
1.
b10 V
#1050000
0!
0.
#1055000
1!
1.
b11 V
#1060000
0!
0.
#1065000
1!
1.
00
0U
b0 V
#1070000
0!
0.
#1075000
1!
1.
b1 V
#1080000
0!
0.
#1085000
1!
1.
b10 V
#1090000
0!
0.
#1095000
1!
1.
b11 V
#1100000
0!
0.
#1105000
1!
b110000 %
b101 )
b11111111100000010000000100010011 ,
1.
10
b110000 1
b110100 2
b110100 3
b101000 4
b101000 5
b11111111100000010000000100010011 6
b10 8
b10 :
b11000 ;
b1111111 <
b10 D
b111111111 E
b0 F
b11111111111111111111111111111000 G
b111111111 H
b11111111111111111111111111111000 I
b111110111 J
0K
b111110111 M
b111110111 N
1U
b0 V
b110000 X
b11111111100000010000000100010011 Y
b11111111111111111111111111111000 k
b10 n
b111110111 w
b0 x
b1111101 z
#1110000
0!
0.
#1115000
1!
b1001 -
1.
b1 V
#1120000
0!
0.
#1125000
1!
1.
b10 V
#1130000
0!
0.
#1135000
1!
1.
b11 V
#1140000
0!
0.
#1145000
1!
1.
00
0U
b0 V
#1150000
0!
0.
#1155000
1!
1.
b1 V
#1160000
0!
0.
#1165000
1!
1.
b10 V
#1170000
0!
0.
#1175000
1!
1.
b11 V
#1180000
0!
0.
#1185000
1!
b110100 %
b111110111 &
b100010010001000100011 ,
1.
10
b110100 1
b111000 2
b111000 3
b111000 4
b111000 5
b100010010001000100011 6
b100011 7
b100 8
b10 9
b1 ;
b0 <
0=
1>
1@
b0 C
b10 D
b111110111 E
b0 F
b100 G
b111110111 H
b100 I
b111111011 J
0K
b111111011 M
b111111011 N
0P
0Q
0R
1U
b0 V
b110100 X
b100010010001000100011 Y
0Z
1[
0\
1]
0^
0_
b0 `
b100 k
b100011 l
b10 n
b111111011 w
b0 x
b1111110 z
#1190000
0!
0.
#1195000
1!
b111110111 )!
b111111111 *!
b1110011011101000110000101100011011010110010000001110000011101000111001000100000001111010010000000110101001100010011000100101001 +!
b0 -
1.
b1 V
#1200000
0!
0.
#1205000
1!
1.
b10 V
#1210000
0!
0.
#1215000
1!
1.
b11 V
#1220000
0!
0.
#1225000
1!
1.
00
0U
b0 V
#1230000
0!
0.
#1235000
1!
1.
b1 V
#1240000
0!
0.
#1245000
1!
1.
b10 V
#1250000
0!
0.
#1255000
1!
1.
b11 V
#1260000
0!
0.
#1265000
1!
b111000 %
b100000010010000000100011 ,
1.
10
b111000 1
b111100 2
b111100 3
b111000 4
b111000 5
b100000010010000000100011 6
b0 8
b1000 ;
b0 F
b0 G
b111110111 H
b0 I
b111110111 J
0K
b111110111 M
b111110111 N
1U
b0 V
b111000 X
b100000010010000000100011 Y
b0 k
b111110111 w
b0 x
b1111101 z
#1270000
0!
0.
#1275000
1!
b1 -
1.
b1 V
#1280000
0!
0.
#1285000
1!
1.
b10 V
#1290000
0!
0.
#1295000
1!
1.
b11 V
#1300000
0!
0.
#1305000
1!
1.
00
0U
b0 V
#1310000
0!
0.
#1315000
1!
1.
b1 V
#1320000
0!
0.
#1325000
1!
1.
b10 V
#1330000
0!
0.
#1335000
1!
1.
b11 V
#1340000
0!
0.
#1345000
1!
b111100 %
b1010000000000000011101111 ,
1.
10
b111100 1
b1000000 2
b1010000 3
b1010000 4
b1010000 5
b1010000000000000011101111 6
b1101111 7
b1 8
b0 9
b0 :
b10100 ;
1=
0>
0@
b10 D
b0 E
b0 F
b10100 G
b0 H
b0 I
b0 J
1K
b0 M
b1000000 N
1O
1P
0Q
0R
1U
b0 V
b111100 X
b1010000000000000011101111 Y
1Z
0[
0\
0]
0^
0_
b0 `
b10100 k
b1101111 l
b10 n
b0 w
b0 x
b0 z
1|
#1350000
0!
0.
#1355000
1!
b10 -
1.
b1 V
#1360000
0!
0.
#1365000
1!
1.
b10 V
#1370000
0!
0.
#1375000
1!
1.
b11 V
#1380000
0!
0.
#1385000
1!
1.
00
0U
b0 V
#1390000
0!
0.
#1395000
1!
1.
b1 V
#1400000
0!
0.
#1405000
1!
1.
b10 V
#1410000
0!
0.
#1415000
1!
1.
b11 V
#1420000
0!
0.
#1425000
1!
b1010000 %
b1010000010000010011 ,
1.
10
b1010000 1
b1010100 2
b1010100 3
b1010000 4
b1010000 5
b1010000010000010011 6
b10011 7
b1000 8
b1010 :
b0 ;
1>
b11 C
b10 D
b101 E
b0 F
b0 G
b101 H
b0 I
b101 J
0K
b101 M
b101 N
0O
0P
0Q
0R
1U
b0 V
b1010000 X
b1010000010000010011 Y
1Z
1[
0\
0]
0^
0_
b11 `
b0 k
b10011 l
b10 n
b101 w
b0 x
b1 z
0|
#1430000
0!
0.
#1435000
1!
b11 -
1.
b1 V
#1440000
0!
0.
#1445000
1!
1.
b10 V
#1450000
0!
0.
#1455000
1!
1.
b11 V
#1460000
0!
0.
#1465000
1!
1.
00
0U
b0 V
#1470000
0!
0.
#1475000
1!
1.
b1 V
#1480000
0!
0.
#1485000
1!
1.
b10 V
#1490000
0!
0.
#1495000
1!
1.
b11 V
#1500000
0!
0.
#1505000
1!
b1010100 %
b101 *
b100000100000000000111000010011 ,
1.
10
b1010100 1
b1011000 2
b1011000 3
b1001011100 4
b1001011100 5
b100000100000000000111000010011 6
b11100 8
b0 :
b1000 ;
b10000 <
b10 D
b0 E
b101 F
b1000001000 G
b0 H
b1000001000 I
b1000001000 J
0K
b1000001000 M
b1000001000 N
0R
1U
b0 V
b1010100 X
b100000100000000000111000010011 Y
b1000001000 k
b10 n
b1000001000 w
b0 x
b10000010 z
#1510000
0!
0.
#1515000
1!
b100 -
1.
b1 V
#1520000
0!
0.
#1525000
1!
1.
b10 V
#1530000
0!
0.
#1535000
1!
1.
b11 V
#1540000
0!
0.
#1545000
1!
1.
00
0U
b0 V
#1550000
0!
0.
#1555000
1!
1.
b1 V
#1560000
0!
0.
#1565000
1!
1.
b10 V
#1570000
0!
0.
#1575000
1!
1.
b11 V
#1580000
0!
0.
#1585000
1!
b1011000 %
b11100010111010000011 ,
1.
10
b1011000 1
b1011100 2
b1011100 3
b1011000 4
b1011000 5
b11100010111010000011 6
b11 7
b11101 8
b10 9
b11100 :
b0 ;
b0 <
1>
1?
1A
b0 C
b10 D
b1000001000 E
b0 F
b0 G
b1000001000 H
b0 I
b1000001000 J
0K
b0 M
b0 N
0P
0Q
0R
1U
b0 V
b1011000 X
b11100010111010000011 Y
1Z
1[
1\
0]
1^
0_
b0 `
b0 k
b11 l
b10 n
b1000001000 w
b0 x
b10000010 z
#1590000
0!
0.
#1595000
1!
b101 -
1.
b1 V
#1600000
0!
0.
#1605000
1!
1.
b10 V
#1610000
0!
0.
#1615000
1!
1.
b11 V
#1620000
0!
0.
#1625000
1!
1.
00
0U
b0 V
#1630000
0!
0.
#1635000
1!
1.
b1 V
#1640000
0!
0.
#1645000
1!
1.
b10 V
#1650000
0!
0.
#1655000
1!
1.
b11 V
#1660000
0!
0.
#1665000
1!
b1011100 %
b10000011101001100001100011 ,
1.
10
b1011100 1
b1100000 2
b1100000 3
b10001100 4
b10001100 5
b10000011101001100001100011 6
b1100011 7
b10000 8
b1 9
b11101 :
b1 <
0=
0>
0?
0A
1B
b1 C
b110 D
b0 E
b110000 G
b0 H
b0 I
b0 J
1K
b0 M
0P
0Q
0R
1U
b0 V
b1011100 X
b10000011101001100001100011 Y
0Z
0[
0\
0]
0^
1_
b1 `
b110000 k
b1100011 l
b110 n
b0 w
b0 x
b0 z
#1670000
0!
0.
#1675000
1!
b110 -
1.
b1 V
#1680000
0!
0.
#1685000
1!
1.
b10 V
#1690000
0!
0.
#1695000
1!
1.
b11 V
#1700000
0!
0.
#1705000
1!
1.
00
0U
b0 V
#1710000
0!
0.
#1715000
1!
1.
b1 V
#1720000
0!
0.
#1725000
1!
1.
b10 V
#1730000
0!
0.
#1735000
1!
1.
b11 V
#1740000
0!
0.
#1745000
1!
b1100000 %
b100000010000000000001010010011 ,
1.
10
b1100000 1
b1100100 2
b1100100 3
b1001100100 4
b1001100100 5
b100000010000000000001010010011 6
b10011 7
b101 8
b0 9
b0 :
b100 ;
b10000 <
1=
1>
0B
b11 C
b10 D
b0 E
b0 F
b1000000100 G
b0 H
b1000000100 I
b1000000100 J
0K
b1000000100 M
b1000000100 N
0O
0P
0Q
0R
1U
b0 V
b1100000 X
b100000010000000000001010010011 Y
1Z
1[
0\
0]
0^
0_
b11 `
b1000000100 k
b10011 l
b10 n
b1000000100 w
b0 x
b10000001 z
#1750000
0!
0.
#1755000
1!
b111 -
1.
b1 V
#1760000
0!
0.
#1765000
1!
1.
b10 V
#1770000
0!
0.
#1775000
1!
1.
b11 V
#1780000
0!
0.
#1785000
1!
1.
00
0U
b0 V
#1790000
0!
0.
#1795000
1!
1.
b1 V
#1800000
0!
0.
#1805000
1!
1.
b10 V
#1810000
0!
0.
#1815000
1!
1.
b11 V
#1820000
0!
0.
#1825000
1!
b1100100 %
b100000101010000000100011 ,
1.
10
b1100100 1
b1101000 2
b1101000 3
b1100100 4
b1100100 5
b100000101010000000100011 6
b100011 7
b0 8
b10 9
b101 :
b1000 ;
b0 <
0=
1>
1@
b0 C
b10 D
b1000000100 E
b101 F
b0 G
b1000000100 H
b0 I
b1000000100 J
0K
b1000000100 M
b1000000100 N
0P
0Q
0R
1U
b0 V
b1100100 X
b100000101010000000100011 Y
0Z
1[
0\
1]
0^
0_
b0 `
b0 k
b100011 l
b10 n
b1000000100 w
b0 x
b10000001 z
#1830000
0!
0.
#1835000
1!
b1000 -
1.
b1 V
#1840000
0!
0.
#1845000
1!
1.
b10 V
#1850000
0!
0.
#1855000
1!
1.
b11 V
#1860000
0!
0.
#1865000
1!
1.
00
0U
b0 V
#1870000
0!
0.
#1875000
1!
1.
b1 V
#1880000
0!
0.
#1885000
1!
1.
b10 V
#1890000
0!
0.
#1895000
1!
1.
b11 V
#1900000
0!
0.
#1905000
1!
b1101000 %
b1000000011110010011 ,
1.
10
b1101000 1
b1101100 2
b1101100 3
b1101000 4
b1101000 5
b1000000011110010011 6
b10011 7
b1111 8
b0 9
b1000 :
b0 ;
1=
1>
0@
b11 C
b10 D
b101 E
b0 F
b101 H
b0 I
b101 J
0K
b101 M
b101 N
0P
0Q
0R
1U
b0 V
b1101000 X
b1000000011110010011 Y
1Z
1[
0\
0]
0^
0_
b11 `
b0 k
b10011 l
b10 n
b101 w
b0 x
b1 z
#1910000
0!
0.
#1915000
1!
b1001 -
1.
b1 V
#1920000
0!
0.
#1925000
1!
1.
b10 V
#1930000
0!
0.
#1935000
1!
1.
b11 V
#1940000
0!
0.
#1945000
1!
1.
00
0U
b0 V
#1950000
0!
0.
#1955000
1!
1.
b1 V
#1960000
0!
0.
#1965000
1!
1.
b10 V
#1970000
0!
0.
