Lab11/lab11/lab11.sim/sim_1/behav/xsim/tb_TopLevel.vcd
$date
   Wed Mar 25 04:39:11 2026
$end
$version
  2020.1
$end
$timescale
  1ps
$end
$scope module tb_TopLevel $end
$var reg 1 ! clk $end
$var reg 1 " reset $end
$var wire 8 # leds [7:0] $end
$var wire 32 $ pc [31:0] $end
$var wire 32 % x2 [31:0] $end
$var wire 32 & x5 [31:0] $end
$var wire 32 ' x6 [31:0] $end
$var wire 32 ( x7 [31:0] $end
$var wire 32 ) x10 [31:0] $end
$var wire 32 * instr [31:0] $end
$var integer 32 + i $end
$scope module uDUT $end
$var wire 1 , clk $end
$var wire 1 - reset $end
$var wire 8 # leds [7:0] $end
$var wire 32 . pc [31:0] $end
$var wire 32 / pc_plus4 [31:0] $end
$var wire 32 0 pc_next [31:0] $end
$var wire 32 1 branch_target [31:0] $end
$var wire 32 2 pc_jump_target [31:0] $end
$var wire 32 3 instruction [31:0] $end
$var wire 7 4 opcode [6:0] $end
$var wire 5 5 rd_addr [4:0] $end
$var wire 3 6 funct3 [2:0] $end
$var wire 5 7 rs1_addr [4:0] $end
$var wire 5 8 rs2_addr [4:0] $end
$var wire 7 9 funct7 [6:0] $end
$var wire 1 : RegWrite $end
$var wire 1 ; ALUSrc $end
$var wire 1 < MemRead $end
$var wire 1 = MemWrite $end
$var wire 1 > MemtoReg $end
$var wire 1 ? Branch $end
$var wire 2 @ ALUOp [1:0] $end
$var wire 4 A ALUControl [3:0] $end
$var wire 32 B ReadData1 [31:0] $end
$var wire 32 C ReadData2 [31:0] $end
$var wire 32 D imm [31:0] $end
$var wire 32 E alu_in_a [31:0] $end
$var wire 32 F alu_in_b [31:0] $end
$var wire 32 G alu_result [31:0] $end
$var wire 1 H Zero $end
$var wire 32 I mem_read_data [31:0] $end
$var wire 32 J wb_from_mem_mux [31:0] $end
$var wire 32 K wb_final [31:0] $end
$var wire 1 L PCSrc $end
$var wire 1 M is_jal $end
$var wire 1 N is_jalr $end
$var wire 1 O branch_taken $end
$var reg 32 P x10_monitor [31:0] $end
$scope module uPC $end
$var wire 1 , clk $end
$var wire 1 - reset $end
$var wire 32 0 pc_next [31:0] $end
$var reg 32 Q pc [31:0] $end
$upscope $end
$scope module uPCAdd $end
$var wire 32 . pc [31:0] $end
$var wire 32 / pc_plus4 [31:0] $end
$upscope $end
$scope module uIMem $end
$var wire 32 . instAddress [31:0] $end
$var reg 32 R instruction [31:0] $end
$var parameter 32 S OPERAND_LENGTH [31:0] $end
$upscope $end
$scope module uCtrl $end
$var wire 7 4 opcode [6:0] $end
$var reg 1 T RegWrite $end
$var reg 1 U ALUSrc $end
$var reg 1 V MemRead $end
$var reg 1 W MemWrite $end
$var reg 1 X MemtoReg $end
$var reg 1 Y Branch $end
$var reg 2 Z ALUOp [1:0] $end
$var parameter 7 [ R_TYPE [6:0] $end
$var parameter 7 \ I_ALU [6:0] $end
$var parameter 7 ] LOAD [6:0] $end
$var parameter 7 ^ STORE [6:0] $end
$var parameter 7 _ BRANCH [6:0] $end
$var parameter 7 ` JAL [6:0] $end
$var parameter 7 a JALR [6:0] $end
$var parameter 7 b LUI [6:0] $end
$var parameter 7 c AUIPC [6:0] $end
$upscope $end
$scope module uRF $end
$var wire 1 , clk $end
$var wire 1 - rst $end
$var wire 1 : WriteEnable $end
$var wire 5 7 rs1 [4:0] $end
$var wire 5 8 rs2 [4:0] $end
$var wire 5 5 rd [4:0] $end
$var wire 32 K WriteData [31:0] $end
$var reg 32 d ReadData1 [31:0] $end
$var reg 32 e ReadData2 [31:0] $end
$var integer 32 f i $end
$upscope $end
$scope module uImmGen $end
$var wire 32 3 inst [31:0] $end
$var reg 32 g imm_out [31:0] $end
$var wire 7 h opcode [6:0] $end
$upscope $end
$scope module uALUSrcMux $end
$var wire 32 C in0 [31:0] $end
$var wire 32 D in1 [31:0] $end
$var wire 1 ; sel $end
$var wire 32 F out [31:0] $end
$var parameter 32 i WIDTH [31:0] $end
$upscope $end
$scope module uALUCtrl $end
$var wire 2 @ ALUOp [1:0] $end
$var wire 3 6 funct3 [2:0] $end
$var wire 7 9 funct7 [6:0] $end
$var reg 4 j ALUControl [3:0] $end
$var parameter 4 k ALU_AND [3:0] $end
$var parameter 4 l ALU_OR [3:0] $end
$var parameter 4 m ALU_ADD [3:0] $end
$var parameter 4 n ALU_XOR [3:0] $end
$var parameter 4 o ALU_SUB [3:0] $end
$var parameter 4 p ALU_SLL [3:0] $end
$var parameter 4 q ALU_SRL [3:0] $end
$var parameter 4 r ALU_NOP [3:0] $end
$upscope $end
$scope module uALU $end
$var wire 32 E A [31:0] $end
$var wire 32 F B [31:0] $end
$var wire 4 A ALUControl [3:0] $end
$var reg 32 s ALUResult [31:0] $end
$var wire 1 H Zero $end
$upscope $end
$scope module uDMem $end
$var wire 1 , clk $end
$var wire 1 = MemWrite $end
$var wire 1 < MemRead $end
$var wire 3 6 funct3 [2:0] $end
$var wire 32 G address [31:0] $end
$var wire 32 C WriteData [31:0] $end
$var reg 32 t ReadData [31:0] $end
$var integer 32 u idx $end
$upscope $end
$scope module uWBMux $end
$var wire 32 G in0 [31:0] $end
$var wire 32 I in1 [31:0] $end
$var wire 1 > sel $end
$var wire 32 J out [31:0] $end
$var parameter 32 v WIDTH [31:0] $end
$upscope $end
$scope module uJALMux $end
$var wire 32 J in0 [31:0] $end
$var wire 32 / in1 [31:0] $end
$var wire 1 w sel $end
$var wire 32 K out [31:0] $end
$var parameter 32 x WIDTH [31:0] $end
$upscope $end
$scope module uBranchAdd $end
$var wire 32 . pc [31:0] $end
$var wire 32 D imm [31:0] $end
$var wire 32 1 branch_target [31:0] $end
$upscope $end
$scope module uPCMux $end
$var wire 32 / in0 [31:0] $end
$var wire 32 2 in1 [31:0] $end
$var wire 1 L sel $end
$var wire 32 0 out [31:0] $end
$var parameter 32 y WIDTH [31:0] $end
$upscope $end
$upscope $end
$scope task check32 $end
$var reg 32 z actual [31:0] $end
$var reg 32 { expected [31:0] $end
$var reg 128 | label [127:0] $end
$upscope $end
$upscope $end
$enddefinitions $end
#0
$dumpvars
0!
1"
bx #
bx $
bx %
bx &
bx '
bx (
bx )
bx *
bx +
0,
1-
bx .
bx /
bx 0
bx 1
bx 2
bx 3
bx 4
bx 5
bx 6
bx 7
bx 8
bx 9
x:
x;
x<
x=
x>
x?
bx @
bx A
bx B
bx C
bx D
bx E
bx F
bx G
xH
b0 I
bx J
bx K
xL
xM
xN
xO
bx P
bx Q
bx R
b11111 S
xT
xU
xV
xW
xX
xY
bx Z
b110011 [
b10011 \
b11 ]
b100011 ^
b1100011 _
b1101111 `
b1100111 a
b110111 b
b10111 c
bx d
bx e
bx f
bx g
bx h
b100000 i
bx j
b0 k
b1 l
b10 m
b11 n
b110 o
b100 p
b101 q
b1111 r
bx s
b0 t
b10000000000 u
b100000 v
xw
b100000 x
b100000 y
bx z
bx {
bx |
$end
#5000
1!
b0 #
b0 $
b0 %
b0 &
b0 '
b0 (
b0 )
b100000000000000000001100010011 *
1,
b0 .
b100 /
b100 0
b1000000000 1
b1000000000 2
b100000000000000000001100010011 3
b10011 4
b110 5
b0 6
b0 7
b0 8
b10000 9
1:
1;
0<
0=
0>
0?
b11 @
b10 A
b0 B
b0 C
b1000000000 D
b0 E
b1000000000 F
b1000000000 G
0H
b1000000000 J
b1000000000 K
0L
0M
0N
0O
b0 P
b0 Q
b100000000000000000001100010011 R
1T
1U
0V
0W
0X
0Y
b11 Z
b0 d
b0 e
b1000000000 g
b10011 h
b10 j
b1000000000 s
b0 t
0w
#10000
0!
0,
#15000
1!
1,
#16000
0"
b0 +
0-
#20000
0!
0,
#25000
1!
b100 $
b1000000000 '
b10100000000001110010011 *
1,
b100 .
b1000 /
b1000 0
b1001 1
b1001 2
b10100000000001110010011 3
b111 5
b101 8
b0 9
b10 A
b101 D
b0 E
b101 F
b101 G
0H
b101 J
b101 K
b100 Q
b10100000000001110010011 R
b0 d
b0 e
b101 g
b10 j
b101 s
b0 t
#26000
b1 +
#30000
0!
0,
#35000
1!
b1000 $
b101 (
b11100110010000000100011 *
1,
b1000 .
b1100 /
b1100 0
b1000 1
b1000 2
b11100110010000000100011 3
b100011 4
b0 5
b10 6
b110 7
b111 8
0:
1;
1=
b0 @
b10 A
b1000000000 B
b101 C
b0 D
b1000000000 E
b0 F
b1000000000 G
0H
b1000000000 J
b1000000000 K
0M
0N
0O
b1000 Q
b11100110010000000100011 R
0T
1U
0V
1W
0X
0Y
b0 Z
b1000000000 d
b101 e
b0 g
b100011 h
b10 j
b1000000000 s
b0 t
#36000
b10 +
#40000
0!
0,
#45000
1!
b1100 $
b11111111100000000000100010011 *
1,
b1100 .
b10000 /
b10000 0
b1000001011 1
b1000001011 2
b11111111100000000000100010011 3
b10011 4
b10 5
b0 6
b0 7
b11111 8
b1111 9
1:
1;
0=
b11 @
b10 A
b0 B
b0 C
b111111111 D
b0 E
b111111111 F
b111111111 G
0H
b111111111 J
b111111111 K
0M
0N
0O
b1100 Q
b11111111100000000000100010011 R
1T
1U
0V
0W
0X
0Y
b11 Z
b0 d
b0 e
b111111111 g
b10011 h
b10 j
b111111111 s
b0 t
#46000
b11 +
#50000
0!
0,
#55000
1!
b10000 $
b111111111 %
b100000010000000000001010010011 *
1,
b10000 .
b10100 /
b10100 0
b1000010100 1
b1000010100 2
b100000010000000000001010010011 3
b101 5
b100 8
b10000 9
b10 A
b1000000100 D
b0 E
b1000000100 F
b1000000100 G
0H
b1000000100 J
b1000000100 K
b10000 Q
b100000010000000000001010010011 R
b0 d
b0 e
b1000000100 g
b10 j
b1000000100 s
b0 t
#56000
b100 +
#60000
0!
0,
#65000
1!
b10100 $
b1000000100 &
b101010000000100011 *
1,
b10100 .
b11000 /
b11000 0
b10100 1
b10100 2
b101010000000100011 3
b100011 4
b0 5
b10 6
b101 7
b0 8
b0 9
0:
1;
1=
b0 @
b10 A
b1000000100 B
b0 D
b1000000100 E
b0 F
b1000000100 G
0H
b1000000100 J
b1000000100 K
0M
0N
0O
b10100 Q
b101010000000100011 R
0T
1U
0V
1W
0X
0Y
b0 Z
b1000000100 d
b0 e
b0 g
b100011 h
b10 j
b1000000100 s
b0 t
#66000
b101 +
#70000
0!
0,
#75000
1!
b11000 $
b100000000000000000001100010011 *
1,
b11000 .
b11100 /
b11100 0
b1000011000 1
b1000011000 2
b100000000000000000001100010011 3
b10011 4
b110 5
b0 6
b0 7
b10000 9
1:
1;
0=
b11 @
b10 A
b0 B
b1000000000 D
b0 E
b1000000000 F
b1000000000 G
0H
b1000000000 J
b1000000000 K
0M
0N
0O
b11000 Q
b100000000000000000001100010011 R
1T
1U
0V
0W
0X
0Y
b11 Z
b0 d
b1000000000 g
b10011 h
b10 j
b1000000000 s
b0 t
#76000
b110 +
#80000
0!
0,
#85000
1!
b11100 $
b110010001110000011 *
1,
b11100 .
b100000 /
b100000 0
b11100 1
b11100 2
b110010001110000011 3
b11 4
b111 5
b10 6
b110 7
b0 9
1;
1<
1>
b0 @
b10 A
b1000000000 B
b0 D
b1000000000 E
b0 F
b1000000000 G
0H
b101 I
b101 J
b101 K
0M
0N
0O
b11100 Q
b110010001110000011 R
1T
1U
1V
0W
1X
0Y
b0 Z
b1000000000 d
b0 g
b11 h
b10 j
b1000000000 s
b101 t
#86000
b111 +
#90000
0!
0,
#95000
1!
b100000 $
b11111110000000111000110011100011 *
1,
b100000 .
b100100 /
b100100 0
b11000 1
b11000 2
b11111110000000111000110011100011 3
b1100011 4
b11001 5
b0 6
b111 7
b1111111 9
0:
0;
0<
0>
1?
b1 @
b110 A
b101 B
b11111111111111111111111111111000 D
b101 E
b0 F
b101 G
0H
b0 I
b101 J
b101 K
0M
0N
0O
b100000 Q
b11111110000000111000110011100011 R
0T
0U
0V
0W
0X
1Y
b1 Z
b101 d
b11111111111111111111111111111000 g
b1100011 h
b110 j
b101 s
b0 t
#96000
b1000 +
#100000
0!
0,
#105000
1!
b100100 $
b100000010000000000001010010011 *
1,
b100100 .
b101000 /
b101000 0
b1000101000 1
b1000101000 2
b100000010000000000001010010011 3
b10011 4
b101 5
b0 7
b100 8
b10000 9
1:
1;
0?
b11 @
b10 A
b0 B
b1000000100 D
b0 E
b1000000100 F
b1000000100 G
0H
b1000000100 J
b1000000100 K
0M
0N
0O
b100100 Q
b100000010000000000001010010011 R
1T
1U
0V
0W
0X
0Y
b11 Z
b0 d
b0 e
b1000000100 g
b10011 h
b10 j
b1000000100 s
b0 t
#106000
b1001 +
#110000
0!
0,
#115000
1!
b101000 $
b11100101010000000100011 *
1,
b101000 .
b101100 /
b101100 0
b101000 1
b101000 2
b11100101010000000100011 3
b100011 4
b0 5
b10 6
b101 7
b111 8
b0 9
0:
1;
1=
b0 @
b10 A
b1000000100 B
b101 C
b0 D
b1000000100 E
b0 F
b1000000100 G
0H
b1000000100 J
b1000000100 K
0M
0N
0O
b101000 Q
b11100101010000000100011 R
0T
1U
0V
1W
0X
0Y
b0 Z
b1000000100 d
b101 e
b0 g
b100011 h
b10 j
b1000000100 s
b0 t
#116000
b0 +
b111111111 z
b111111111 {
b1100011011010110010000001110000011101000111001000100000001111010010000000110101001100010011000100101001001000000010000000100000 |
#120000
0!
0,
#125000
1!
b101100 $
b111000010100010011 *
b1 +
1,
b101100 .
b110000 /
b110000 0
b101100 1
b101100 2
b111000010100010011 3
b10011 4
b1010 5
b0 6
b111 7
b0 8
1:
1;
0=
b11 @
b10 A
b101 B
b0 C
b101 E
b0 F
b101 G
0H
b101 J
b101 K
0M
0N
0O
b101100 Q
b111000010100010011 R
1T
1U
0V
0W
0X
0Y
b11 Z
b101 d
b0 e
b0 g
b10011 h
b10 j
b101 s
b0 t
#130000
0!
0,
#135000
1!
b101 #
b110000 $
b101 )
b11111111100000010000000100010011 *
b10 +
1,
b110000 .
b110100 /
b110100 0
b101000 1
b101000 2
b11111111100000010000000100010011 3
b10 5
b10 7
b11000 8
b1111111 9
b10 A
b111111111 B
b11111111111111111111111111111000 D
b111111111 E
b11111111111111111111111111111000 F
b111110111 G
0H
b111110111 J
b111110111 K
b101 P
b110000 Q
b11111111100000010000000100010011 R
b111111111 d
b0 e
b11111111111111111111111111111000 g
b10 j
b111110111 s
b0 t
#140000
0!
0,
#145000
1!
b110100 $
b111110111 %
b100010010001000100011 *
b11 +
1,
b110100 .
b111000 /
b111000 0
b111000 1
b111000 2
b100010010001000100011 3
b100011 4
b100 5
b10 6
b1 8
b0 9
0:
1;
1=
b0 @
b10 A
b111110111 B
b100 D
b111110111 E
b100 F
b111111011 G
0H
b111111011 J
b111111011 K
0M
0N
0O
b110100 Q
b100010010001000100011 R
0T
1U
0V
1W
0X
0Y
b0 Z
b111110111 d
b0 e
b100 g
b100011 h
b10 j
b111111011 s
b0 t
#150000
0!
0,
#155000
1!
b111000 $
b100000010010000000100011 *
b100 +
1,
b111000 .
b111100 /
b111100 0
b111000 1
b111000 2
b100000010010000000100011 3
b0 5
b1000 8
b0 D
b111110111 E
b0 F
b111110111 G
0H
b111110111 J
b111110111 K
b111000 Q
b100000010010000000100011 R
b0 e
b0 g
b111110111 s
b0 t
#160000
0!
0,
#165000
1!
b111100 $
b1010000000000000011101111 *
b101 +
1,
b111100 .
b1000000 /
b1010000 0
b1010000 1
b1010000 2
b1010000000000000011101111 3
b1101111 4
b1 5
b0 6
b0 7
b10100 8
1:
0;
0=
b10 A
b0 B
b10100 D
b0 E
b0 F
b0 G
1H
b0 J
b1000000 K
1L
1M
0N
0O
b111100 Q
b1010000000000000011101111 R
1T
0U
0V
0W
0X
0Y
b0 Z
b0 d
b0 e
b10100 g
b1101111 h
b10 j
b0 s
b0 t
1w
#170000
0!
0,
#175000
1!
b1010000 $
b11111111100000010000000100010011 *
b110 +
1,
b1010000 .
b1010100 /
b1010100 0
b1001000 1
b1001000 2
b11111111100000010000000100010011 3
b10011 4
b10 5
b10 7
b11000 8
b1111111 9
1;
b11 @
b10 A
b111110111 B
b11111111111111111111111111111000 D
b111110111 E
b11111111111111111111111111111000 F
b111101111 G
0H
b111101111 J
b111101111 K
0L
0M
0N
0O
b1010000 Q
b11111111100000010000000100010011 R
1T
1U
0V
0W
0X
0Y
b11 Z
b111110111 d
b0 e
b11111111111111111111111111111000 g
b10011 h
b10 j
b111101111 s
b0 t
0w
#180000
0!
0,
#185000
1!
b1010100 $
b111101111 %
b100010010001000100011 *
b111 +
1,
b1010100 .
b1011000 /
b1011000 0
b1011000 1
b1011000 2
b100010010001000100011 3
b100011 4
b100 5
b10 6
b1 8
b0 9
0:
1;
1=
b0 @
b10 A
b111101111 B
b1000000 C
b100 D
b111101111 E
b100 F
b111110011 G
0H
b111110011 J
b111110011 K
0M
0N
0O
b1010100 Q
b100010010001000100011 R
0T
1U
0V
1W
0X
0Y
b0 Z
b111101111 d
b1000000 e
b100 g
b100011 h
b10 j
b111110011 s
b0 t
#190000
0!
0,
#195000
1!
b1011000 $
b100000010010000000100011 *
b1000 +
1,
b1011000 .
b1011100 /
b1011100 0
b1011000 1
b1011000 2
b100000010010000000100011 3
b0 5
b1000 8
b0 C
b0 D
b111101111 E
b0 F
b111101111 G
0H
b111101111 J
b111101111 K
b1011000 Q
b100000010010000000100011 R
b0 e
b0 g
b111101111 s
b0 t
#200000
0!
0,
#205000
1!
b1011100 $
b1010000010000010011 *
b1001 +
1,
b1011100 .
b1100000 /
b1100000 0
b1011100 1
b1011100 2
b1010000010000010011 3
b10011 4
b1000 5
b0 6
b1010 7
b0 8
1:
1;
0=
b11 @
b10 A
b101 B
b101 E
b101 G
0H
b101 J
b101 K
0M
0N
0O
b1011100 Q
b1010000010000010011 R
1T
1U
0V
0W
0X
0Y
b11 Z
b101 d
b0 e
b0 g
b10011 h
b10 j
b101 s
b0 t
#210000
0!
0,
#215000
1!
b1100000 $
b100000100000000000111000010011 *
b1010 +
1,
b1100000 .
b1100100 /
b1100100 0
b1001101000 1
b1001101000 2
b100000100000000000111000010011 3
b11100 5
b0 7
b1000 8
b10000 9
b10 A
b0 B
b101 C
b1000001000 D
b0 E
b1000001000 F
b1000001000 G
0H
b1000001000 J
b1000001000 K
b1100000 Q
b100000100000000000111000010011 R
b0 d
b101 e
b1000001000 g
b10 j
b1000001000 s
b0 t
#220000
0!
0,
#225000
1!
b1100100 $
b11100010111010000011 *
b1011 +
1,
b1100100 .
b1101000 /
b1101000 0
b1100100 1
b1100100 2
b11100010111010000011 3
b11 4
b11101 5
b10 6
b11100 7
b0 8
b0 9
1;
1<
1>
b0 @
b10 A
b1000001000 B
b0 C
b0 D
b1000001000 E
b0 F
b1000001000 G
0H
b0 J
b0 K
0M
0N
0O
b1100100 Q
b11100010111010000011 R
1T
1U
1V
0W
1X
0Y
b0 Z
b1000001000 d
b0 e
b0 g
b11 h
b10 j
b1000001000 s
b0 t
#230000
0!
0,
#235000
1!
b1101000 $
b10000011101001100001100011 *
b1100 +
1,
b1101000 .
b1101100 /
b1101100 0
b10011000 1
b10011000 2
b10000011101001100001100011 3
b1100011 4
b10000 5
b1 6
b11101 7
b1 9
0:
0;
0<
0>
1?
b1 @
b110 A
b0 B
b110000 D
b0 E
b0 F
b0 G
1H
b0 J
b0 K
0L
0M
0N
0O
b1101000 Q
b10000011101001100001100011 R
0T
0U
0V
0W
0X
1Y
b1 Z
b0 d
b110000 g
b1100011 h
b110 j
b0 s
b0 t
#240000
0!
0,
#245000
1!
b1101100 $
b100000010000000000001010010011 *
b1101 +
1,
b1101100 .
b1110000 /
b1110000 0
b1001110000 1
b1001110000 2
b100000010000000000001010010011 3
b10011 4
b101 5
b0 6
b0 7
b100 8
b10000 9
1:
1;
0?
b11 @
b10 A
b1000000100 D
b0 E
b1000000100 F
b1000000100 G
0H
b1000000100 J
b1000000100 K
0L
0M
0N
0O
b1101100 Q
b100000010000000000001010010011 R
1T
1U
0V
0W
0X
0Y
b11 Z
b0 d
b0 e
b1000000100 g
b10011 h
b10 j
b1000000100 s
b0 t
#250000
0!
0,
#255000
1!
b1110000 $
b100000101010000000100011 *
b1110 +
1,
b1110000 .
b1110100 /
b1110100 0
b1110000 1
b1110000 2
b100000101010000000100011 3
b100011 4
b0 5
b10 6
b101 7
b1000 8
b0 9
0:
1;
1=
b0 @
b10 A
b1000000100 B
b101 C
b0 D
b1000000100 E
b0 F
b1000000100 G
0H
b1000000100 J
b1000000100 K
0M
0N
0O
b1110000 Q
b100000101010000000100011 R
0T
1U
0V
1W
0X
0Y
b0 Z
b1000000100 d
b101 e
b0 g
b100011 h
b10 j
b1000000100 s
b0 t
#260000
0!
0,
#265000
1!
b1110100 $
b1000000011110010011 *
b1111 +
1,
b1110100 .
b1111000 /
b1111000 0
b1110100 1
b1110100 2
b1000000011110010011 3
b10011 4
b1111 5
b0 6
b1000 7
b0 8
1:
1;
0=
b11 @
b10 A
b101 B
b0 C
b101 E
b0 F
b101 G
0H
b101 J
b101 K
0M
0N
0O
b1110100 Q
b1000000011110010011 R
1T
1U
0V
0W
0X
0Y
b11 Z
b101 d
b0 e
b0 g
b10011 h
b10 j
b101 s
b0 t
#270000
0!
0,
#275000
1!
b1111000 $
b10000001000000000001100011 *
b10000 +
1,
b1111000 .
b1111100 /
b1111100 0
b10011000 1
b10011000 2
b10000001000000000001100011 3
b1100011 4
b0 5
b1 9
0:
0;
1?
b1 @
b110 A
b100000 D
b101 E
b0 F
0M
0N
0O
b1111000 Q
b10000001000000000001100011 R
0T
0U
0V
0W
0X
1Y
b1 Z
b101 d
b0 e
b100000 g
b1100011 h
b110 j
b101 s
#280000
0!
0,
#285000
1!
b1111100 $
b11111111110000010000000100010011 *
b10001 +
1,
b1111100 .
b10000000 /
b10000000 0
b1111000 1
b1111000 2
b11111111110000010000000100010011 3
b10011 4
b10 5
b10 7
b11100 8
b1111111 9
1:
1;
0?
b11 @
b10 A
b111101111 B
b1000001000 C
b11111111111111111111111111111100 D
b111101111 E
b11111111111111111111111111111100 F
b111101011 G
0H
b111101011 J
b111101011 K
0M
0N
0O
b1111100 Q
b11111111110000010000000100010011 R
1T
1U
0V
0W
0X
0Y
b11 Z
b111101111 d
b1000001000 e
b11111111111111111111111111111100 g
b10011 h
b10 j
b111101011 s
b0 t
#290000
0!
0,
#295000
1!
b10000000 $
b111101011 %
b100010010000000100011 *
b10010 +
1,
b10000000 .
b10000100 /
b10000100 0
b10000000 1
b10000000 2
b100010010000000100011 3
b100011 4
b0 5
b10 6
b1 8
b0 9
0:
1;
1=
b0 @
b10 A
b111101011 B
b1000000 C
b0 D
b111101011 E
b0 F
b111101011 G
0H
b111101011 J
b111101011 K
0M
0N
0O
b10000000 Q
b100010010000000100011 R
0T
1U
0V
1W
0X
0Y
b0 Z
b111101011 d
b1000000 e
b0 g
b100011 h
b10 j
b111101011 s
b0 t
#300000
0!
0,
#305000
1!
b10000100 $
b10110000000000000011101111 *
b10011 +
1,
b10000100 .
b10001000 /
b10110000 0
b10110000 1
b10110000 2
b10110000000000000011101111 3
b1101111 4
b1 5
b0 6
b0 7
b1100 8
b1 9
1:
0;
0=
b10 A
b0 B
b0 C
b101100 D
b0 E
b0 F
b0 G
1H
b0 J
b10001000 K
1L
1M
0N
0O
b10000100 Q
b10110000000000000011101111 R
1T
0U
0V
0W
0X
0Y
b0 Z
b0 d
b0 e
b101100 g
b1101111 h
b10 j
b0 s
b0 t
1w
#310000
0!
0,
#315000
1!
b10110000 $
b1100000000111100010011 *
b10100 +
1,
b10110000 .
b10110100 /
b10110100 0
b10110011 1
b10110011 2
b1100000000111100010011 3
b10011 4
b11110 5
b11 8
b0 9
1;
b11 @
b10 A
b11 D
b0 E
b11 F
b11 G
0H
b11 J
b11 K
0L
0M
0N
0O
b10110000 Q
b1100000000111100010011 R
1T
1U
0V
0W
0X
0Y
b11 Z
b0 d
b0 e
b11 g
b10011 h
b10 j
b11 s
b0 t
0w
#320000
0!
0,
#325000
1!
b10110100 $
b11111111111111110000111100010011 *
b10101 +
1,
b10110100 .
b10111000 /
b10111000 0
b10110011 1
b10110011 2
b11111111111111110000111100010011 3
b11110 7
b11111 8
b1111111 9
b10 A
b11 B
b11111111111111111111111111111111 D
b11 E
b11111111111111111111111111111111 F
b10 G
0H
b10 J
b10 K
b10110100 Q
b11111111111111110000111100010011 R
b11 d
b0 e
b11111111111111111111111111111111 g
b10 j
b10 s
b0 t
#330000
0!
0,
#335000
1!
b10111000 $
b11111110000011110001111011100011 *
b10110 +
1,
b10111000 .
b10111100 /
b10110100 0
b10110100 1
b10110100 2
b11111110000011110001111011100011 3
b1100011 4
b11101 5
b1 6
b0 8
0:
0;
1?
b1 @
b110 A
b10 B
b11111111111111111111111111111100 D
b10 E
b0 F
b10 G
0H
b10 J
b10 K
1L
0M
0N
1O
b10111000 Q
b11111110000011110001111011100011 R
0T
0U
0V
0W
0X
1Y
b1 Z
b10 d
b0 e
b11111111111111111111111111111100 g
b1100011 h
b110 j
b10 s
b0 t
#340000
0!
0,
#345000
1!
b10110100 $
b11111111111111110000111100010011 *
b10111 +
1,
b10110100 .
b10111000 /
b10111000 0
b10110011 1
b10110011 2
b11111111111111110000111100010011 3
b10011 4
b11110 5
b0 6
b11111 8
1:
1;
0?
b11 @
b10 A
b11111111111111111111111111111111 D
b10 E
b11111111111111111111111111111111 F
b1 G
0H
b1 J
b1 K
0L
0M
0N
0O
b10110100 Q
b11111111111111110000111100010011 R
1T
1U
0V
0W
0X
0Y
b11 Z
b0 e
b11111111111111111111111111111111 g
b10011 h
b10 j
b1 s
b0 t
#350000
0!
0,
#355000
1!
b10111000 $
b11111110000011110001111011100011 *
b11000 +
1,
b10111000 .
b10111100 /
b10110100 0
b10110100 1
b10110100 2
b11111110000011110001111011100011 3
b1100011 4
b11101 5
b1 6
b0 8
0:
0;
1?
b1 @
b110 A
b1 B
b11111111111111111111111111111100 D
b1 E
b0 F
b1 G
0H
b1 J
b1 K
1L
0M
0N
1O
b10111000 Q
b11111110000011110001111011100011 R
0T
0U
0V
0W
0X
1Y
b1 Z
b1 d
b0 e
b11111111111111111111111111111100 g
b1100011 h
b110 j
b1 s
b0 t
#360000
0!
0,
#365000
1!
b10110100 $
b11111111111111110000111100010011 *
b11001 +
1,
b10110100 .
b10111000 /
b10111000 0
b10110011 1
b10110011 2
b11111111111111110000111100010011 3
b10011 4
b11110 5
b0 6
b11111 8
1:
1;
0?
b11 @
b10 A
b11111111111111111111111111111111 D
b1 E
b11111111111111111111111111111111 F
b0 G
1H
b0 J
b0 K
0L
0M
0N
0O
b10110100 Q
b11111111111111110000111100010011 R
1T
1U
0V
0W
0X
0Y
b11 Z
b0 e
b11111111111111111111111111111111 g
b10011 h
b10 j
b0 s
b0 t
#370000
0!
0,
#375000
1!
b10111000 $
b11111110000011110001111011100011 *
b11010 +
1,
b10111000 .
b10111100 /
b10111100 0
b10110100 1
b10110100 2
b11111110000011110001111011100011 3
b1100011 4
b11101 5
b1 6
b0 8
0:
0;
1?
b1 @
b110 A
b0 B
b11111111111111111111111111111100 D
b0 E
b0 F
b0 G
1H
b0 J
b0 K
0L
0M
0N
0O
b10111000 Q
b11111110000011110001111011100011 R
0T
0U
0V
0W
0X
1Y
b1 Z
b0 d
b0 e
b11111111111111111111111111111100 g
b1100011 h
b110 j
b0 s
b0 t
#380000
0!
0,
#385000
1!
b10111100 $
b1000000001100111 *
b11011 +
1,
b10111100 .
b11000000 /
b10001000 0
b10111100 1
b10001000 2
b1000000001100111 3
b1100111 4
b0 5
b0 6
b1 7
b0 9
1:
1;
0?
b0 @
b10 A
b10001000 B
b0 D
b10001000 E
b0 F
b10001000 G
0H
b10001000 J
b11000000 K
1L
0M
1N
0O
b10111100 Q
b1000000001100111 R
1T
1U
0V
0W
0X
0Y
b0 Z
b10001000 d
b0 g
b1100111 h
b10 j
b10001000 s
b0 t
1w
#390000
0!
0,
#395000
1!
b10001000 $
b10010000010000011 *
b11100 +
1,
b10001000 .
b10001100 /
b10001100 0
b10001000 1
b10001000 2
b10010000010000011 3
b11 4
b1 5
b10 6
b10 7
1;
1<
1>
b10 A
b111101011 B
b111101011 E
b111101011 G
0H
b1000000 I
b1000000 J
b1000000 K
0L
0M
0N
0O
b10001000 Q
b10010000010000011 R
1T
1U
1V
0W
1X
0Y
b0 Z
b111101011 d
b0 g
b11 h
b10 j
b111101011 s
b1000000 t
0w
#400000
0!
0,
#405000
1!
b10001100 $
b10000010000000100010011 *
b11101 +
1,
b10001100 .
b10010000 /
b10010000 0
b10010000 1
b10010000 2
b10000010000000100010011 3
b10011 4
b10 5
b0 6
b100 8
1;
0<
0>
b11 @
b10 A
b100 D
b111101011 E
b100 F
b111101111 G
0H
b0 I
b111101111 J
b111101111 K
0M
0N
0O
b10001100 Q
b10000010000000100010011 R
1T
1U
0V
0W
0X
0Y
b11 Z
b111101011 d
b0 e
b100 g
b10011 h
b10 j
b111101111 s
b0 t
#410000
0!
0,
#415000
1!
b10010000 $
b111101111 %
b11111111111101000000010000010011 *
b11110 +
1,
b10010000 .
b10010100 /
b10010100 0
b10001111 1
b10001111 2
b11111111111101000000010000010011 3
b1000 5
b1000 7
b11111 8
b1111111 9
b10 A
b101 B
b11111111111111111111111111111111 D
b101 E
b11111111111111111111111111111111 F
b100 G
0H
b100 J
b100 K
b10010000 Q
b11111111111101000000010000010011 R
b101 d
b0 e
b11111111111111111111111111111111 g
b10 j
b100 s
b0 t
#420000
0!
0,
