Lab7/lab7_friday/lab7_friday.sim/sim_1/behav/xsim/simulate.log
Vivado Simulator 2020.1
Time resolution is 1 ps
t=25000  state=0  ALU_Result=0x00000000  Zero=1
t=35000  state=1  ALU_Result=0x00000000  Zero=1
t=45000  state=2  ALU_Result=0x00000000  Zero=1
t=55000  state=3  ALU_Result=0x00000000  Zero=1
t=65000  state=4  ALU_Result=0x11111111  Zero=0
t=75000  state=5  ALU_Result=0x0f0f0f0f  Zero=0
t=85000  state=6  ALU_Result=0x00000000  Zero=1
t=95000  state=7  ALU_Result=0x11111111  Zero=0
t=105000  state=8  ALU_Result=0x11111111  Zero=0
t=115000  state=9  ALU_Result=0x02020200  Zero=0
t=125000  state=10  ALU_Result=0x00808080  Zero=0
t=135000  state=11  ALU_Result=0x00000000  Zero=1
t=145000  state=12  ALU_Result=0x00000000  Zero=1
t=155000  state=13  ALU_Result=0xabcdabcd  Zero=0
t=165000  state=14  ALU_Result=0x00000000  Zero=1
t=175000  state=14  ALU_Result=0x00000000  Zero=1
PASS [ADD  x4]: 0x11111111
PASS [SUB  x5]: 0x0f0f0f0f
PASS [AND  x6]: 0x00000000
PASS [OR   x7]: 0x11111111
PASS [XOR  x8]: 0x11111111
PASS [SLL  x9]: 0x02020200
PASS [SRL x10]: 0x00808080
PASS [BEQ x11]: 0x00000001
PASS [RAW x12]: 0xabcdabcd
t=185000  state=14  ALU_Result=0xabcdabcd  Zero=0
PASS [x0 = 0 ]: 0x00000000
-------------------------------
Total: 10 PASSED, 0 FAILED
-------------------------------
$finish called at time : 186 ns : File "C:/Users/DELL/Downloads/lab5mon/lab7_friday/lab7_friday.srcs/sim_1/new/RF_ALU_FSM_tb.v" Line 114
